%YAML 1.1
%TAG !u! tag:unity3d.com,2011:
--- !u!1 &1017174981557966
GameObject:
  m_ObjectHideFlags: 0
  m_CorrespondingSourceObject: {fileID: 0}
  m_PrefabInstance: {fileID: 0}
  m_PrefabAsset: {fileID: 0}
  serializedVersion: 6
  m_Component:
  - component: {fileID: 4496192729519998}
  - component: {fileID: 33474797291392788}
  - component: {fileID: 23500161809256514}
  - component: {fileID: 7646690702071656612}
  - component: {fileID: 7418078537893185642}
  m_Layer: 0
  m_Name: left
  m_TagString: Untagged
  m_Icon: {fileID: 0}
  m_NavMeshLayer: 0
  m_StaticEditorFlags: 0
  m_IsActive: 1
--- !u!4 &4496192729519998
Transform:
  m_ObjectHideFlags: 0
  m_CorrespondingSourceObject: {fileID: 0}
  m_PrefabInstance: {fileID: 0}
  m_PrefabAsset: {fileID: 0}
  m_GameObject: {fileID: 1017174981557966}
  m_LocalRotation: {x: 0, y: -0, z: -0, w: 1}
  m_LocalPosition: {x: 1.3, y: 2.6, z: 0}
  m_LocalScale: {x: 1, y: 1, z: 1}
  m_Children: []
  m_Father: {fileID: 4529018377482200}
  m_RootOrder: 1
  m_LocalEulerAnglesHint: {x: 0, y: 0, z: 0}
--- !u!33 &33474797291392788
MeshFilter:
  m_ObjectHideFlags: 0
  m_CorrespondingSourceObject: {fileID: 0}
  m_PrefabInstance: {fileID: 0}
  m_PrefabAsset: {fileID: 0}
  m_GameObject: {fileID: 1017174981557966}
  m_Mesh: {fileID: 4300004, guid: 2dd7f16c519ef2148b317fe9f6e407e4, type: 3}
--- !u!23 &23500161809256514
MeshRenderer:
  m_ObjectHideFlags: 0
  m_CorrespondingSourceObject: {fileID: 0}
  m_PrefabInstance: {fileID: 0}
  m_PrefabAsset: {fileID: 0}
  m_GameObject: {fileID: 1017174981557966}
  m_Enabled: 1
  m_CastShadows: 1
  m_ReceiveShadows: 1
  m_DynamicOccludee: 1
  m_MotionVectors: 1
  m_LightProbeUsage: 1
  m_ReflectionProbeUsage: 1
  m_RayTracingMode: 2
  m_RenderingLayerMask: 4294967295
  m_RendererPriority: 0
  m_Materials:
  - {fileID: 2100000, guid: 84cec21451d73674c84e19a3476b0cd2, type: 2}
  m_StaticBatchInfo:
    firstSubMesh: 0
    subMeshCount: 0
  m_StaticBatchRoot: {fileID: 0}
  m_ProbeAnchor: {fileID: 0}
  m_LightProbeVolumeOverride: {fileID: 0}
  m_ScaleInLightmap: 1
  m_ReceiveGI: 1
  m_PreserveUVs: 0
  m_IgnoreNormalsForChartDetection: 0
  m_ImportantGI: 0
  m_StitchLightmapSeams: 0
  m_SelectedEditorRenderState: 3
  m_MinimumChartSize: 4
  m_AutoUVMaxDistance: 0.5
  m_AutoUVMaxAngle: 89
  m_LightmapParameters: {fileID: 0}
  m_SortingLayerID: 0
  m_SortingLayer: 0
  m_SortingOrder: 0
--- !u!54 &7646690702071656612
Rigidbody:
  m_ObjectHideFlags: 0
  m_CorrespondingSourceObject: {fileID: 0}
  m_PrefabInstance: {fileID: 0}
  m_PrefabAsset: {fileID: 0}
  m_GameObject: {fileID: 1017174981557966}
  serializedVersion: 2
  m_Mass: 1
  m_Drag: 0
  m_AngularDrag: 0.05
  m_UseGravity: 0
  m_IsKinematic: 1
  m_Interpolate: 0
  m_Constraints: 0
  m_CollisionDetection: 0
--- !u!65 &7418078537893185642
BoxCollider:
  m_ObjectHideFlags: 0
  m_CorrespondingSourceObject: {fileID: 0}
  m_PrefabInstance: {fileID: 0}
  m_PrefabAsset: {fileID: 0}
  m_GameObject: {fileID: 1017174981557966}
  m_Material: {fileID: 0}
  m_IsTrigger: 0
  m_Enabled: 1
  serializedVersion: 2
  m_Size: {x: 1.11592, y: 2.23184, z: 1.11592}
  m_Center: {x: 0.55796, y: -1.11592, z: 0}
--- !u!1 &1116308320492544
GameObject:
  m_ObjectHideFlags: 0
  m_CorrespondingSourceObject: {fileID: 0}
  m_PrefabInstance: {fileID: 0}
  m_PrefabAsset: {fileID: 0}
  serializedVersion: 6
  m_Component:
  - component: {fileID: 4373758356940898}
  - component: {fileID: 33651418453897682}
  - component: {fileID: 23430134207117446}
  - component: {fileID: 2491087262041322934}
  - component: {fileID: 3038674811480640691}
  m_Layer: 0
  m_Name: right
  m_TagString: Untagged
  m_Icon: {fileID: 0}
  m_NavMeshLayer: 0
  m_StaticEditorFlags: 0
  m_IsActive: 1
--- !u!4 &4373758356940898
Transform:
  m_ObjectHideFlags: 0
  m_CorrespondingSourceObject: {fileID: 0}
  m_PrefabInstance: {fileID: 0}
  m_PrefabAsset: {fileID: 0}
  m_GameObject: {fileID: 1116308320492544}
  m_LocalRotation: {x: 0, y: 0, z: 0, w: 1}
  m_LocalPosition: {x: -1.3, y: 2.6, z: 5.775292e-14}
  m_LocalScale: {x: 0.8584, y: 0.8584, z: 0.8584}
  m_Children:
  - {fileID: 7006071019942900976}
  - {fileID: 2233315466064584431}
  m_Father: {fileID: 4529018377482200}
  m_RootOrder: 3
  m_LocalEulerAnglesHint: {x: 0, y: 0, z: 0}
--- !u!33 &33651418453897682
MeshFilter:
  m_ObjectHideFlags: 0
  m_CorrespondingSourceObject: {fileID: 0}
  m_PrefabInstance: {fileID: 0}
  m_PrefabAsset: {fileID: 0}
  m_GameObject: {fileID: 1116308320492544}
  m_Mesh: {fileID: 4300006, guid: 2dd7f16c519ef2148b317fe9f6e407e4, type: 3}
--- !u!23 &23430134207117446
MeshRenderer:
  m_ObjectHideFlags: 0
  m_CorrespondingSourceObject: {fileID: 0}
  m_PrefabInstance: {fileID: 0}
  m_PrefabAsset: {fileID: 0}
  m_GameObject: {fileID: 1116308320492544}
  m_Enabled: 1
  m_CastShadows: 1
  m_ReceiveShadows: 1
  m_DynamicOccludee: 1
  m_MotionVectors: 1
  m_LightProbeUsage: 1
  m_ReflectionProbeUsage: 1
  m_RayTracingMode: 2
  m_RenderingLayerMask: 4294967295
  m_RendererPriority: 0
  m_Materials:
  - {fileID: 2100000, guid: 84cec21451d73674c84e19a3476b0cd2, type: 2}
  m_StaticBatchInfo:
    firstSubMesh: 0
    subMeshCount: 0
  m_StaticBatchRoot: {fileID: 0}
  m_ProbeAnchor: {fileID: 0}
  m_LightProbeVolumeOverride: {fileID: 0}
  m_ScaleInLightmap: 1
  m_ReceiveGI: 1
  m_PreserveUVs: 0
  m_IgnoreNormalsForChartDetection: 0
  m_ImportantGI: 0
  m_StitchLightmapSeams: 0
  m_SelectedEditorRenderState: 3
  m_MinimumChartSize: 4
  m_AutoUVMaxDistance: 0.5
  m_AutoUVMaxAngle: 89
  m_LightmapParameters: {fileID: 0}
  m_SortingLayerID: 0
  m_SortingLayer: 0
  m_SortingOrder: 0
--- !u!54 &2491087262041322934
Rigidbody:
  m_ObjectHideFlags: 0
  m_CorrespondingSourceObject: {fileID: 0}
  m_PrefabInstance: {fileID: 0}
  m_PrefabAsset: {fileID: 0}
  m_GameObject: {fileID: 1116308320492544}
  serializedVersion: 2
  m_Mass: 1
  m_Drag: 0
  m_AngularDrag: 0.05
  m_UseGravity: 0
  m_IsKinematic: 1
  m_Interpolate: 0
  m_Constraints: 0
  m_CollisionDetection: 0
--- !u!65 &3038674811480640691
BoxCollider:
  m_ObjectHideFlags: 0
  m_CorrespondingSourceObject: {fileID: 0}
  m_PrefabInstance: {fileID: 0}
  m_PrefabAsset: {fileID: 0}
  m_GameObject: {fileID: 1116308320492544}
  m_Material: {fileID: 0}
  m_IsTrigger: 0
  m_Enabled: 1
  serializedVersion: 2
  m_Size: {x: 1.2999998, y: 2.5999997, z: 1.2999998}
  m_Center: {x: -0.6499999, y: -1.2999846, z: -0.000030517578}
--- !u!1 &1120382595616030
GameObject:
  m_ObjectHideFlags: 0
  m_CorrespondingSourceObject: {fileID: 0}
  m_PrefabInstance: {fileID: 0}
  m_PrefabAsset: {fileID: 0}
  serializedVersion: 6
  m_Component:
  - component: {fileID: 4313166088898230}
  - component: {fileID: 33687485626393478}
  - component: {fileID: 23877602953723002}
  - component: {fileID: 4574600009471940774}
  - component: {fileID: 801872243401582557}
  m_Layer: 0
  m_Name: head
  m_TagString: Untagged
  m_Icon: {fileID: 0}
  m_NavMeshLayer: 0
  m_StaticEditorFlags: 0
  m_IsActive: 1
--- !u!4 &4313166088898230
Transform:
  m_ObjectHideFlags: 0
  m_CorrespondingSourceObject: {fileID: 0}
  m_PrefabInstance: {fileID: 0}
  m_PrefabAsset: {fileID: 0}
  m_GameObject: {fileID: 1120382595616030}
  m_LocalRotation: {x: -0, y: -0, z: -0, w: 1}
  m_LocalPosition: {x: 0, y: 2.6, z: 0}
  m_LocalScale: {x: 0.26, y: 0.26, z: 0.26}
  m_Children: []
  m_Father: {fileID: 4529018377482200}
  m_RootOrder: 0
  m_LocalEulerAnglesHint: {x: 0, y: 0, z: 0}
--- !u!33 &33687485626393478
MeshFilter:
  m_ObjectHideFlags: 0
  m_CorrespondingSourceObject: {fileID: 0}
  m_PrefabInstance: {fileID: 0}
  m_PrefabAsset: {fileID: 0}
  m_GameObject: {fileID: 1120382595616030}
  m_Mesh: {fileID: 4300002, guid: 2dd7f16c519ef2148b317fe9f6e407e4, type: 3}
--- !u!23 &23877602953723002
MeshRenderer:
  m_ObjectHideFlags: 0
  m_CorrespondingSourceObject: {fileID: 0}
  m_PrefabInstance: {fileID: 0}
  m_PrefabAsset: {fileID: 0}
  m_GameObject: {fileID: 1120382595616030}
  m_Enabled: 1
  m_CastShadows: 1
  m_ReceiveShadows: 1
  m_DynamicOccludee: 1
  m_MotionVectors: 1
  m_LightProbeUsage: 1
  m_ReflectionProbeUsage: 1
  m_RayTracingMode: 2
  m_RenderingLayerMask: 4294967295
  m_RendererPriority: 0
  m_Materials:
  - {fileID: 2100000, guid: 84cec21451d73674c84e19a3476b0cd2, type: 2}
  - {fileID: 2100000, guid: 84cec21451d73674c84e19a3476b0cd2, type: 2}
  m_StaticBatchInfo:
    firstSubMesh: 0
    subMeshCount: 0
  m_StaticBatchRoot: {fileID: 0}
  m_ProbeAnchor: {fileID: 0}
  m_LightProbeVolumeOverride: {fileID: 0}
  m_ScaleInLightmap: 1
  m_ReceiveGI: 1
  m_PreserveUVs: 0
  m_IgnoreNormalsForChartDetection: 0
  m_ImportantGI: 0
  m_StitchLightmapSeams: 0
  m_SelectedEditorRenderState: 3
  m_MinimumChartSize: 4
  m_AutoUVMaxDistance: 0.5
  m_AutoUVMaxAngle: 89
  m_LightmapParameters: {fileID: 0}
  m_SortingLayerID: 0
  m_SortingLayer: 0
  m_SortingOrder: 0
--- !u!54 &4574600009471940774
Rigidbody:
  m_ObjectHideFlags: 0
  m_CorrespondingSourceObject: {fileID: 0}
  m_PrefabInstance: {fileID: 0}
  m_PrefabAsset: {fileID: 0}
  m_GameObject: {fileID: 1120382595616030}
  serializedVersion: 2
  m_Mass: 1
  m_Drag: 0
  m_AngularDrag: 0.05
  m_UseGravity: 0
  m_IsKinematic: 1
  m_Interpolate: 0
  m_Constraints: 0
  m_CollisionDetection: 0
--- !u!65 &801872243401582557
BoxCollider:
  m_ObjectHideFlags: 0
  m_CorrespondingSourceObject: {fileID: 0}
  m_PrefabInstance: {fileID: 0}
  m_PrefabAsset: {fileID: 0}
  m_GameObject: {fileID: 1120382595616030}
  m_Material: {fileID: 0}
  m_IsTrigger: 0
  m_Enabled: 1
  serializedVersion: 2
  m_Size: {x: 9.999999, y: 9.999999, z: 9.999999}
  m_Center: {x: 0, y: 4.9999995, z: 0}
--- !u!1 &1371757622440228
GameObject:
  m_ObjectHideFlags: 0
  m_CorrespondingSourceObject: {fileID: 0}
  m_PrefabInstance: {fileID: 0}
  m_PrefabAsset: {fileID: 0}
  serializedVersion: 6
  m_Component:
  - component: {fileID: 4166045162533494}
  - component: {fileID: 136902499463821762}
  m_Layer: 15
  m_Name: UnitTargetPos
  m_TagString: Untagged
  m_Icon: {fileID: 0}
  m_NavMeshLayer: 0
  m_StaticEditorFlags: 0
  m_IsActive: 1
--- !u!4 &4166045162533494
Transform:
  m_ObjectHideFlags: 0
  m_CorrespondingSourceObject: {fileID: 0}
  m_PrefabInstance: {fileID: 0}
  m_PrefabAsset: {fileID: 0}
  m_GameObject: {fileID: 1371757622440228}
  m_LocalRotation: {x: -0, y: -0, z: -0, w: 1}
  m_LocalPosition: {x: 0, y: 0, z: 0}
  m_LocalScale: {x: 1, y: 1, z: 1}
  m_Children: []
  m_Father: {fileID: 4476943404885354}
  m_RootOrder: 0
  m_LocalEulerAnglesHint: {x: 0, y: 0, z: 0}
--- !u!136 &136902499463821762
CapsuleCollider:
  m_ObjectHideFlags: 0
  m_CorrespondingSourceObject: {fileID: 0}
  m_PrefabInstance: {fileID: 0}
  m_PrefabAsset: {fileID: 0}
  m_GameObject: {fileID: 1371757622440228}
  m_Material: {fileID: 0}
  m_IsTrigger: 1
  m_Enabled: 1
  m_Radius: 0.25
  m_Height: 1
  m_Direction: 1
  m_Center: {x: 0, y: 0, z: 0}
--- !u!1 &1601587465662514
GameObject:
  m_ObjectHideFlags: 0
  m_CorrespondingSourceObject: {fileID: 0}
  m_PrefabInstance: {fileID: 0}
  m_PrefabAsset: {fileID: 0}
  serializedVersion: 6
  m_Component:
  - component: {fileID: 4529018377482200}
  - component: {fileID: 33587195255618302}
  - component: {fileID: 23060081162541748}
  - component: {fileID: 8234340750221690604}
  - component: {fileID: 571333231131364078}
  m_Layer: 0
  m_Name: Model
  m_TagString: Untagged
  m_Icon: {fileID: 0}
  m_NavMeshLayer: 0
  m_StaticEditorFlags: 0
  m_IsActive: 1
--- !u!4 &4529018377482200
Transform:
  m_ObjectHideFlags: 0
  m_CorrespondingSourceObject: {fileID: 0}
  m_PrefabInstance: {fileID: 0}
  m_PrefabAsset: {fileID: 0}
  m_GameObject: {fileID: 1601587465662514}
  m_LocalRotation: {x: -0, y: 1, z: -0, w: 0}
  m_LocalPosition: {x: -0.005180359, y: -0.003, z: 0}
  m_LocalScale: {x: 0.14999999, y: 0.14999999, z: 0.14999999}
  m_Children:
  - {fileID: 4313166088898230}
  - {fileID: 4496192729519998}
  - {fileID: 7374656166284838846}
  - {fileID: 4373758356940898}
  m_Father: {fileID: 4476943404885354}
  m_RootOrder: 3
  m_LocalEulerAnglesHint: {x: 0, y: 180, z: 0}
--- !u!33 &33587195255618302
MeshFilter:
  m_ObjectHideFlags: 0
  m_CorrespondingSourceObject: {fileID: 0}
  m_PrefabInstance: {fileID: 0}
  m_PrefabAsset: {fileID: 0}
  m_GameObject: {fileID: 1601587465662514}
  m_Mesh: {fileID: 4300000, guid: 2dd7f16c519ef2148b317fe9f6e407e4, type: 3}
--- !u!23 &23060081162541748
MeshRenderer:
  m_ObjectHideFlags: 0
  m_CorrespondingSourceObject: {fileID: 0}
  m_PrefabInstance: {fileID: 0}
  m_PrefabAsset: {fileID: 0}
  m_GameObject: {fileID: 1601587465662514}
  m_Enabled: 1
  m_CastShadows: 1
  m_ReceiveShadows: 1
  m_DynamicOccludee: 1
  m_MotionVectors: 1
  m_LightProbeUsage: 1
  m_ReflectionProbeUsage: 1
  m_RayTracingMode: 2
  m_RenderingLayerMask: 4294967295
  m_RendererPriority: 0
  m_Materials:
  - {fileID: 2100000, guid: 84cec21451d73674c84e19a3476b0cd2, type: 2}
  m_StaticBatchInfo:
    firstSubMesh: 0
    subMeshCount: 0
  m_StaticBatchRoot: {fileID: 0}
  m_ProbeAnchor: {fileID: 0}
  m_LightProbeVolumeOverride: {fileID: 0}
  m_ScaleInLightmap: 1
  m_ReceiveGI: 1
  m_PreserveUVs: 0
  m_IgnoreNormalsForChartDetection: 0
  m_ImportantGI: 0
  m_StitchLightmapSeams: 0
  m_SelectedEditorRenderState: 3
  m_MinimumChartSize: 4
  m_AutoUVMaxDistance: 0.5
  m_AutoUVMaxAngle: 89
  m_LightmapParameters: {fileID: 0}
  m_SortingLayerID: 0
  m_SortingLayer: 0
  m_SortingOrder: 0
--- !u!54 &8234340750221690604
Rigidbody:
  m_ObjectHideFlags: 0
  m_CorrespondingSourceObject: {fileID: 0}
  m_PrefabInstance: {fileID: 0}
  m_PrefabAsset: {fileID: 0}
  m_GameObject: {fileID: 1601587465662514}
  serializedVersion: 2
  m_Mass: 1
  m_Drag: 0
  m_AngularDrag: 0.05
  m_UseGravity: 0
  m_IsKinematic: 1
  m_Interpolate: 0
  m_Constraints: 0
  m_CollisionDetection: 0
--- !u!65 &571333231131364078
BoxCollider:
  m_ObjectHideFlags: 0
  m_CorrespondingSourceObject: {fileID: 0}
  m_PrefabInstance: {fileID: 0}
  m_PrefabAsset: {fileID: 0}
  m_GameObject: {fileID: 1601587465662514}
  m_Material: {fileID: 0}
  m_IsTrigger: 0
  m_Enabled: 1
  serializedVersion: 2
  m_Size: {x: 2.6, y: 2.6, z: 2.6}
  m_Center: {x: -0.000030517578, y: 1.3, z: 0}
--- !u!1 &1705730545328196
GameObject:
  m_ObjectHideFlags: 0
  m_CorrespondingSourceObject: {fileID: 0}
  m_PrefabInstance: {fileID: 0}
  m_PrefabAsset: {fileID: 0}
  serializedVersion: 6
  m_Component:
  - component: {fileID: 4744867761485402}
  - component: {fileID: 65534196199936712}
  - component: {fileID: 54625264665576870}
  - component: {fileID: 114603077944701808}
  m_Layer: 0
  m_Name: SelectionObj
  m_TagString: Untagged
  m_Icon: {fileID: 0}
  m_NavMeshLayer: 0
  m_StaticEditorFlags: 0
  m_IsActive: 1
--- !u!4 &4744867761485402
Transform:
  m_ObjectHideFlags: 0
  m_CorrespondingSourceObject: {fileID: 0}
  m_PrefabInstance: {fileID: 0}
  m_PrefabAsset: {fileID: 0}
  m_GameObject: {fileID: 1705730545328196}
  m_LocalRotation: {x: -0, y: -0, z: -0, w: 1}
  m_LocalPosition: {x: 0, y: 0.406, z: 0}
  m_LocalScale: {x: 0.83750004, y: 0.47406217, z: 1}
  m_Children: []
  m_Father: {fileID: 4476943404885354}
  m_RootOrder: 1
  m_LocalEulerAnglesHint: {x: 0, y: 0, z: 0}
--- !u!65 &65534196199936712
BoxCollider:
  m_ObjectHideFlags: 0
  m_CorrespondingSourceObject: {fileID: 0}
  m_PrefabInstance: {fileID: 0}
  m_PrefabAsset: {fileID: 0}
  m_GameObject: {fileID: 1705730545328196}
  m_Material: {fileID: 0}
  m_IsTrigger: 1
  m_Enabled: 1
  serializedVersion: 2
  m_Size: {x: 0.87, y: 2, z: 0.38}
  m_Center: {x: 0, y: 0, z: 0}
--- !u!54 &54625264665576870
Rigidbody:
  m_ObjectHideFlags: 0
  m_CorrespondingSourceObject: {fileID: 0}
  m_PrefabInstance: {fileID: 0}
  m_PrefabAsset: {fileID: 0}
  m_GameObject: {fileID: 1705730545328196}
  serializedVersion: 2
  m_Mass: 1
  m_Drag: 0
  m_AngularDrag: 0.05
  m_UseGravity: 0
  m_IsKinematic: 1
  m_Interpolate: 0
  m_Constraints: 0
  m_CollisionDetection: 0
--- !u!114 &114603077944701808
MonoBehaviour:
  m_ObjectHideFlags: 0
  m_CorrespondingSourceObject: {fileID: 0}
  m_PrefabInstance: {fileID: 0}
  m_PrefabAsset: {fileID: 0}
  m_GameObject: {fileID: 1705730545328196}
  m_Enabled: 1
  m_EditorHideFlags: 0
  m_Script: {fileID: 11500000, guid: abe63e1d9b1896440bf19a44daa734df, type: 3}
  m_Name: 
  m_EditorClassIdentifier: 
  canSelect: 1
  selectOwnerOnly: 0
  minimapIconSize: 0.5
--- !u!1 &1838097221559632
GameObject:
  m_ObjectHideFlags: 0
  m_CorrespondingSourceObject: {fileID: 0}
  m_PrefabInstance: {fileID: 0}
  m_PrefabAsset: {fileID: 0}
  serializedVersion: 6
  m_Component:
  - component: {fileID: 4205893312322674}
  - component: {fileID: 33615680014658776}
  - component: {fileID: 23461145379742392}
  m_Layer: 12
  m_Name: Plane
  m_TagString: Untagged
  m_Icon: {fileID: 0}
  m_NavMeshLayer: 0
  m_StaticEditorFlags: 0
  m_IsActive: 1
--- !u!4 &4205893312322674
Transform:
  m_ObjectHideFlags: 0
  m_CorrespondingSourceObject: {fileID: 0}
  m_PrefabInstance: {fileID: 0}
  m_PrefabAsset: {fileID: 0}
  m_GameObject: {fileID: 1838097221559632}
  m_LocalRotation: {x: 0, y: 0, z: 0, w: 1}
  m_LocalPosition: {x: 0, y: 0.002, z: 0}
  m_LocalScale: {x: 0.1, y: 1, z: 0.1}
  m_Children: []
  m_Father: {fileID: 4476943404885354}
  m_RootOrder: 2
  m_LocalEulerAnglesHint: {x: 0, y: 0, z: 0}
--- !u!33 &33615680014658776
MeshFilter:
  m_ObjectHideFlags: 0
  m_CorrespondingSourceObject: {fileID: 0}
  m_PrefabInstance: {fileID: 0}
  m_PrefabAsset: {fileID: 0}
  m_GameObject: {fileID: 1838097221559632}
  m_Mesh: {fileID: 10209, guid: 0000000000000000e000000000000000, type: 0}
--- !u!23 &23461145379742392
MeshRenderer:
  m_ObjectHideFlags: 0
  m_CorrespondingSourceObject: {fileID: 0}
  m_PrefabInstance: {fileID: 0}
  m_PrefabAsset: {fileID: 0}
  m_GameObject: {fileID: 1838097221559632}
  m_Enabled: 1
  m_CastShadows: 1
  m_ReceiveShadows: 1
  m_DynamicOccludee: 1
  m_MotionVectors: 1
  m_LightProbeUsage: 1
  m_ReflectionProbeUsage: 1
  m_RayTracingMode: 2
  m_RenderingLayerMask: 4294967295
  m_RendererPriority: 0
  m_Materials:
  - {fileID: 2100000, guid: 7d96e88e1865f3d4f995ab72acec5bc6, type: 2}
  m_StaticBatchInfo:
    firstSubMesh: 0
    subMeshCount: 0
  m_StaticBatchRoot: {fileID: 0}
  m_ProbeAnchor: {fileID: 0}
  m_LightProbeVolumeOverride: {fileID: 0}
  m_ScaleInLightmap: 1
  m_ReceiveGI: 1
  m_PreserveUVs: 1
  m_IgnoreNormalsForChartDetection: 0
  m_ImportantGI: 0
  m_StitchLightmapSeams: 0
  m_SelectedEditorRenderState: 3
  m_MinimumChartSize: 4
  m_AutoUVMaxDistance: 0.5
  m_AutoUVMaxAngle: 89
  m_LightmapParameters: {fileID: 0}
  m_SortingLayerID: 0
  m_SortingLayer: 0
  m_SortingOrder: 0
--- !u!1 &1913004789782250
GameObject:
  m_ObjectHideFlags: 0
  m_CorrespondingSourceObject: {fileID: 0}
  m_PrefabInstance: {fileID: 0}
  m_PrefabAsset: {fileID: 0}
  serializedVersion: 6
  m_Component:
  - component: {fileID: 4476943404885354}
  - component: {fileID: 114849242340138994}
  - component: {fileID: 114294393487527146}
  - component: {fileID: 195872591440357914}
  - component: {fileID: 65521671177474732}
  - component: {fileID: 54042434167755534}
  - component: {fileID: 95877944569894678}
  - component: {fileID: 82643091493194070}
  - component: {fileID: 114993838964213816}
  - component: {fileID: 114314286443579628}
  - component: {fileID: 114090218185507480}
  - component: {fileID: 1491056327431374734}
  - component: {fileID: 2283469257019228070}
  - component: {fileID: 7059245944642009911}
  - component: {fileID: 6868707218502548414}
  m_Layer: 12
  m_Name: Villager
  m_TagString: Untagged
  m_Icon: {fileID: 0}
  m_NavMeshLayer: 0
  m_StaticEditorFlags: 0
  m_IsActive: 1
--- !u!4 &4476943404885354
Transform:
  m_ObjectHideFlags: 0
  m_CorrespondingSourceObject: {fileID: 0}
  m_PrefabInstance: {fileID: 0}
  m_PrefabAsset: {fileID: 0}
  m_GameObject: {fileID: 1913004789782250}
  m_LocalRotation: {x: 0, y: 0, z: 0, w: 1}
  m_LocalPosition: {x: 40.32765, y: 13.234375, z: 48.1814}
  m_LocalScale: {x: 0.8, y: 0.8, z: 0.8}
  m_Children:
  - {fileID: 4166045162533494}
  - {fileID: 4744867761485402}
  - {fileID: 4205893312322674}
  - {fileID: 4529018377482200}
  m_Father: {fileID: 0}
  m_RootOrder: 0
  m_LocalEulerAnglesHint: {x: 0, y: 0, z: 0}
--- !u!114 &114849242340138994
MonoBehaviour:
  m_ObjectHideFlags: 0
  m_CorrespondingSourceObject: {fileID: 0}
  m_PrefabInstance: {fileID: 0}
  m_PrefabAsset: {fileID: 0}
  m_GameObject: {fileID: 1913004789782250}
  m_Enabled: 1
  m_EditorHideFlags: 0
  m_Script: {fileID: 11500000, guid: 9c1e885e8e7860a4f8cceb9aac61c68c, type: 3}
  m_Name: 
  m_EditorClassIdentifier: 
  inProgressObject: {fileID: 691589316627563630}
  sourceEffect: {fileID: 0}
  targetEffect: {fileID: 0}
  orderAudio:
    fetchType: 0
    audioClips:
    - {fileID: 8300000, guid: eedde9a22b741494fb17e97dc5fd6c26, type: 3}
  autoBehavior:
    enabled: 1
    searchReload: 5
    searchRange: 20
  taskUI:
    code: 
    enabled: 0
    displayType: 0
    icon: {fileID: 0}
    panelCategory: 2
    forceSlot: 0
    slotIndex: 0
    tooltipEnabled: 0
    description: 
    hideTooltipOnClick: 0
  constructFreeBuildings: 0
  healthPerSecond: 3
  constructionAudio:
    fetchType: 0
    audioClips:
    - {fileID: 8300000, guid: 84d35472a5d8bad47a41c305d88ebfa0, type: 3}
  restrictions:
    type: 0
    code: []
--- !u!114 &114294393487527146
MonoBehaviour:
  m_ObjectHideFlags: 0
  m_CorrespondingSourceObject: {fileID: 0}
  m_PrefabInstance: {fileID: 0}
  m_PrefabAsset: {fileID: 0}
  m_GameObject: {fileID: 1913004789782250}
  m_Enabled: 1
  m_EditorHideFlags: 0
  m_Script: {fileID: 11500000, guid: 2b611935c044ac3479865dddaa61c62b, type: 3}
  m_Name: 
  m_EditorClassIdentifier: 
  inProgressObject: {fileID: 0}
  sourceEffect: {fileID: 0}
  targetEffect: {fileID: 0}
  orderAudio:
    fetchType: 0
    audioClips: []
  autoBehavior:
    enabled: 1
    searchReload: 5
    searchRange: 20
  taskUI:
    code: 
    enabled: 0
    displayType: 0
    icon: {fileID: 0}
    panelCategory: 0
    forceSlot: 0
    slotIndex: 0
    tooltipEnabled: 0
    description: 
    hideTooltipOnClick: 0
  maxCapacity: 7
  collectionObjects:
  - resourceType: {fileID: 11400000, guid: 7fad61ec7c519fc48bda4c4cab2cb727, type: 2}
    obj: {fileID: 0}
    animatorOverrideController: {fileID: 22100000, guid: feb5656c43616cb418f74d41672cedf8,
      type: 2}
    dropOffObject: {fileID: 3961015833913702538}
    dropOffOverrideController: {fileID: 22100000, guid: c6eb86904b4d5cc4aa05a40c0907040f,
      type: 2}
  - resourceType: {fileID: 11400000, guid: a3e40a20a0b603d4793ed1985b005aed, type: 2}
    obj: {fileID: 691589316627563630}
    animatorOverrideController: {fileID: 0}
    dropOffObject: {fileID: 3961015833913702538}
    dropOffOverrideController: {fileID: 22100000, guid: c6eb86904b4d5cc4aa05a40c0907040f,
      type: 2}
  - resourceType: {fileID: 11400000, guid: bc712db0d42339240b16b338029bd113, type: 2}
    obj: {fileID: 691589316627563630}
    animatorOverrideController: {fileID: 0}
    dropOffObject: {fileID: 3961015833913702538}
    dropOffOverrideController: {fileID: 22100000, guid: c6eb86904b4d5cc4aa05a40c0907040f,
      type: 2}
  - resourceType: {fileID: 11400000, guid: 289f2d92dd5497e4e99f9d0a656207e0, type: 2}
    obj: {fileID: 0}
    animatorOverrideController: {fileID: 22100000, guid: feb5656c43616cb418f74d41672cedf8,
      type: 2}
    dropOffObject: {fileID: 0}
    dropOffOverrideController: {fileID: 0}
--- !u!195 &195872591440357914
NavMeshAgent:
  m_ObjectHideFlags: 0
  m_CorrespondingSourceObject: {fileID: 0}
  m_PrefabInstance: {fileID: 0}
  m_PrefabAsset: {fileID: 0}
  m_GameObject: {fileID: 1913004789782250}
  m_Enabled: 0
  m_AgentTypeID: 0
  m_Radius: 0.6
  m_Speed: 10
  m_Acceleration: 8
  avoidancePriority: 50
  m_AngularSpeed: 999
  m_StoppingDistance: 2
  m_AutoTraverseOffMeshLink: 1
  m_AutoBraking: 1
  m_AutoRepath: 1
  m_Height: 1
  m_BaseOffset: 0
  m_WalkableMask: 7
  m_ObstacleAvoidanceType: 0
--- !u!65 &65521671177474732
BoxCollider:
  m_ObjectHideFlags: 0
  m_CorrespondingSourceObject: {fileID: 0}
  m_PrefabInstance: {fileID: 0}
  m_PrefabAsset: {fileID: 0}
  m_GameObject: {fileID: 1913004789782250}
  m_Material: {fileID: 0}
  m_IsTrigger: 1
  m_Enabled: 1
  serializedVersion: 2
  m_Size: {x: 1, y: 1, z: 1}
  m_Center: {x: 0, y: 0.5, z: 0}
--- !u!54 &54042434167755534
Rigidbody:
  m_ObjectHideFlags: 0
  m_CorrespondingSourceObject: {fileID: 0}
  m_PrefabInstance: {fileID: 0}
  m_PrefabAsset: {fileID: 0}
  m_GameObject: {fileID: 1913004789782250}
  serializedVersion: 2
  m_Mass: 1
  m_Drag: 0
  m_AngularDrag: 0.05
  m_UseGravity: 0
  m_IsKinematic: 1
  m_Interpolate: 0
  m_Constraints: 126
  m_CollisionDetection: 3
--- !u!95 &95877944569894678
Animator:
  serializedVersion: 3
  m_ObjectHideFlags: 0
  m_CorrespondingSourceObject: {fileID: 0}
  m_PrefabInstance: {fileID: 0}
  m_PrefabAsset: {fileID: 0}
  m_GameObject: {fileID: 1913004789782250}
  m_Enabled: 1
  m_Avatar: {fileID: 0}
  m_Controller: {fileID: 22100000, guid: c6eb86904b4d5cc4aa05a40c0907040f, type: 2}
  m_CullingMode: 0
  m_UpdateMode: 0
  m_ApplyRootMotion: 0
  m_LinearVelocityBlending: 0
  m_WarningMessage: 
  m_HasTransformHierarchy: 1
  m_AllowConstantClipSamplingOptimization: 1
  m_KeepAnimatorControllerStateOnDisable: 0
--- !u!82 &82643091493194070
AudioSource:
  m_ObjectHideFlags: 0
  m_CorrespondingSourceObject: {fileID: 0}
  m_PrefabInstance: {fileID: 0}
  m_PrefabAsset: {fileID: 0}
  m_GameObject: {fileID: 1913004789782250}
  m_Enabled: 1
  serializedVersion: 4
  OutputAudioMixerGroup: {fileID: 0}
  m_audioClip: {fileID: 0}
  m_PlayOnAwake: 0
  m_Volume: 0.3
  m_Pitch: 1
  Loop: 0
  Mute: 0
  Spatialize: 0
  SpatializePostEffects: 0
  Priority: 128
  DopplerLevel: 0
  MinDistance: 1
  MaxDistance: 20
  Pan2D: 0
  rolloffMode: 1
  BypassEffects: 0
  BypassListenerEffects: 0
  BypassReverbZones: 0
  rolloffCustomCurve:
    serializedVersion: 2
    m_Curve:
    - serializedVersion: 3
      time: 0
      value: 1
      inSlope: 0
      outSlope: 0
      tangentMode: 0
      weightedMode: 0
      inWeight: 0.33333334
      outWeight: 0.33333334
    - serializedVersion: 3
      time: 1
      value: 0
      inSlope: 0
      outSlope: 0
      tangentMode: 0
      weightedMode: 0
      inWeight: 0.33333334
      outWeight: 0.33333334
    m_PreInfinity: 2
    m_PostInfinity: 2
    m_RotationOrder: 4
  panLevelCustomCurve:
    serializedVersion: 2
    m_Curve:
    - serializedVersion: 3
      time: 0
      value: 1
      inSlope: 0
      outSlope: 0
      tangentMode: 0
      weightedMode: 0
      inWeight: 0.33333334
      outWeight: 0.33333334
    m_PreInfinity: 2
    m_PostInfinity: 2
    m_RotationOrder: 0
  spreadCustomCurve:
    serializedVersion: 2
    m_Curve:
    - serializedVersion: 3
      time: 0
      value: 0
      inSlope: 0
      outSlope: 0
      tangentMode: 0
      weightedMode: 0
      inWeight: 0.33333334
      outWeight: 0.33333334
    m_PreInfinity: 2
    m_PostInfinity: 2
    m_RotationOrder: 0
  reverbZoneMixCustomCurve:
    serializedVersion: 2
    m_Curve:
    - serializedVersion: 3
      time: 0
      value: 1
      inSlope: 0
      outSlope: 0
      tangentMode: 0
      weightedMode: 0
      inWeight: 0.33333334
      outWeight: 0.33333334
    m_PreInfinity: 2
    m_PostInfinity: 2
    m_RotationOrder: 0
--- !u!114 &114993838964213816
MonoBehaviour:
  m_ObjectHideFlags: 0
  m_CorrespondingSourceObject: {fileID: 0}
  m_PrefabInstance: {fileID: 0}
  m_PrefabAsset: {fileID: 0}
  m_GameObject: {fileID: 1913004789782250}
  m_Enabled: 1
  m_EditorHideFlags: 0
  m_Script: {fileID: 11500000, guid: 336368cae8283464db5dddd78bd08437, type: 3}
  m_Name: 
  m_EditorClassIdentifier: 
  _name: Villager
  code: villager
  category: civilian
  description: Can build and collect resources.
  icon: {fileID: 21300000, guid: 2d9f93e1c80a5fa4aaaa6a3e0dfeb5d3, type: 3}
  free: 0
  selectionAudio:
    fetchType: 0
    audioClips:
    - {fileID: 8300000, guid: da23919934ffead49aeef45902bb3bc7, type: 3}
  plane: {fileID: 1838097221559632}
  model: {fileID: 1601587465662514}
  selection: {fileID: 114603077944701808}
  radius: 2
  factionID: 0
  coloredRenderers:
  - renderer: {fileID: 23060081162541748}
    materialID: 0
  initResources:
  - Name: FactionPower
    Amount: 1
  disableResources:
  - Name: FactionPower
    Amount: -1
  populationSlots: 1
  apcSlots: 1
  deadItem: {fileID: 0}
  canBeConverted: 1
  animator: {fileID: 95877944569894678}
  animatorOverrideController: {fileID: 22100000, guid: 5096a1f7ac2859b4698271e4db7e03c3,
    type: 2}
  spawnLookAt: {fileID: 0}
  regulatorData:
    allTypes: {fileID: 0}
    typeSpecific:
    - ignoreFactionType: 1
      type: {fileID: 0}
      ignoreNPCType: 0
      npcType: {fileID: 11400000, guid: 3493c8af534d298418a9824742a03c90, type: 2}
      value: {fileID: 11400000, guid: 523287e160315034db43f424cb95a27b, type: 2}
    - ignoreFactionType: 1
      type: {fileID: 0}
      ignoreNPCType: 0
      npcType: {fileID: 11400000, guid: a5ea2df505968cd43ad2f45542b531b2, type: 2}
      value: {fileID: 11400000, guid: 268ab44f471f79548b5be77f6ef89dcc, type: 2}
--- !u!114 &114314286443579628
MonoBehaviour:
  m_ObjectHideFlags: 0
  m_CorrespondingSourceObject: {fileID: 0}
  m_PrefabInstance: {fileID: 0}
  m_PrefabAsset: {fileID: 0}
  m_GameObject: {fileID: 1913004789782250}
  m_Enabled: 1
  m_EditorHideFlags: 0
  m_Script: {fileID: 11500000, guid: d3fa461a43bafd643867159a6e2e38e0, type: 3}
  m_Name: 
  m_EditorClassIdentifier: 
  maxHealth: 50
  hoverHealthBarY: 2
  canBeAttacked: 1
  takeDamage: 1
  damageEffect: {fileID: 0}
  destroyObject: 1
  destroyObjectTime: 4
  destroyAward: []
  destructionAudio:
    fetchType: 0
    audioClips: []
  destructionEffect: {fileID: 0}
  stopMovingOnDamage: 0
  enableDamageAnimation: 0
  damageAnimationDuration: 0.2
--- !u!114 &114090218185507480
MonoBehaviour:
  m_ObjectHideFlags: 0
  m_CorrespondingSourceObject: {fileID: 0}
  m_PrefabInstance: {fileID: 0}
  m_PrefabAsset: {fileID: 0}
  m_GameObject: {fileID: 1913004789782250}
  m_Enabled: 1
  m_EditorHideFlags: 0
  m_Script: {fileID: 11500000, guid: 5753921ccbe21134dad27bb458d7cfb5, type: 3}
  m_Name: 
  m_EditorClassIdentifier: 
  isActive: 1
  airUnit: 0
  formation:
    showProperties: 0
    type: 0
    amount: 4
    maxEmpty: 1
  resetPendingMovement: 0
  speed: 5
  acceleration: 10
  mvtAngularSpeed: 250
  canMoveRotate: 1
  minMoveAngle: 40
  canIdleRotate: 1
  smoothIdleRotation: 1
  idleAngularSpeed: 2
  movementTaskUI: {fileID: 11400000, guid: 8ad3ad0025e768b48a46005832870d8d, type: 2}
  mvtOrderAudio:
    fetchType: 0
    audioClips: []
  mvtAudio:
    fetchType: 0
    audioClips: []
  invalidMvtPathAudio:
    fetchType: 0
    audioClips: []
--- !u!114 &1491056327431374734
MonoBehaviour:
  m_ObjectHideFlags: 0
  m_CorrespondingSourceObject: {fileID: 0}
  m_PrefabInstance: {fileID: 0}
  m_PrefabAsset: {fileID: 0}
  m_GameObject: {fileID: 1913004789782250}
  m_Enabled: 1
  m_EditorHideFlags: 0
  m_Script: {fileID: 11500000, guid: f04daf4d8f2ed0a48b04f560025031dc, type: 3}
  m_Name: 
  m_EditorClassIdentifier: 
  isActive: 1
  NPCOnly: 1
  range:
    min: 20
    max: 40
  speed: 6
  escapeAnimatorOverride: {fileID: 0}
--- !u!114 &2283469257019228070
MonoBehaviour:
  m_ObjectHideFlags: 0
  m_CorrespondingSourceObject: {fileID: 0}
  m_PrefabInstance: {fileID: 0}
  m_PrefabAsset: {fileID: 0}
  m_GameObject: {fileID: 1913004789782250}
  m_Enabled: 1
  m_EditorHideFlags: 0
  m_Script: {fileID: 11500000, guid: 9d50f81b2617c564f8e5ed1cdaa4cb4f, type: 3}
  m_Name: 
  m_EditorClassIdentifier: 
  tabID: 0
  isLocked: 0
  isActive: 1
  code: archer_basic_attack
  basic: 1
  targetPicker:
    type: 0
    targetList: []
    engageUnits: 1
    engageFlyingUnits: 1
    engageBuildings: 1
  direct: 0
  engageOnAssign: 1
  engageWhenAttacked: 1
  engageOnce: 0
  engageFriendly: 0
  engageInRange: 0
  engageInRangeIdleOnly: 1
  searchRange: 10
  searchReload: 3
  delayDuration: 3
  delayTriggerEnabled: 0
  useReload: 1
  reloadDuration: 1
  coolDownEnabled: 0
  coolDownDuration: 10
  requireTarget: 1
  damage:
    canDealDamage: 1
    unitDamage: 10
    buildingDamage: 6
    customDamages: []
    areaAttackEnabled: 0
    attackRanges: []
    dotEnabled: 0
    dotAttributes:
      infinite: 0
      duration: 0
      cycleDuration: 0
    effect: {fileID: 0}
    effectLifeTime: 0
  reloadDealtDamage: 0
  weapon:
    weaponObject: {fileID: 0}
    freezeRotationX: 0
    freezeRotationY: 0
    freezeRotationZ: 0
    smoothRotation: 1
    rotateInRangeOnly: 0
    rotationDamping: 2
    forceIdleRotation: 1
    idleAngles: {x: 0, y: 0, z: 0}
  lineOfSight:
    enable: 1
    useWeaponObject: 0
    LOSAngle: 40
    ignoreRotationX: 0
    ignoreRotationY: 1
    ignoreRotationZ: 0
  attackObjectLauncher:
    launchType: 0
    sources:
    - attackObject: {fileID: 2262512332233555239}
      launchPosition: {fileID: 4373758356940898}
      accuracyModifier: {x: 0, y: 0, z: 0}
      delayTime: 0.8
      createInDelay: 1
      damageInDelay: 0
      delayParentObject: {fileID: 4373758356940898}
  attackTaskUI: {fileID: 11400000, guid: 91781cf5be89328499e3773d965eadca, type: 2}
  attackerInRangeEvent:
    m_PersistentCalls:
      m_Calls: []
  targetLockedEvent:
    m_PersistentCalls:
      m_Calls: []
  attackPerformedEvent:
    m_PersistentCalls:
      m_Calls: []
  attackDamageDealtEvent:
    m_PersistentCalls:
      m_Calls: []
  switchTaskUI: {fileID: 0}
  orderAudio:
    fetchType: 0
    audioClips:
    - {fileID: 8300000, guid: 60ba6e957fcf8b646a9ec8820c5242c8, type: 3}
  attackAudio:
    fetchType: 0
    audioClips:
    - {fileID: 8300000, guid: 51342d39e8be79144a81856bb418bef4, type: 3}
  range:
    unitStoppingDistance:
      min: 5
      max: 10
    buildingStoppingDistance:
      min: 5
      max: 10
    noTargetStoppingDistance:
      min: 5
      max: 10
    moveOnAttackOffset: 1
    updateMvtDistance: 1
    formation:
      showProperties: 0
      type: 0
      amount: 4
      maxEmpty: 1
  moveOnAttack: 0
  followDistance: 15
  attackAnimOverrideController: {fileID: 0}
  triggerAnimationInDelay: 1
--- !u!114 &7059245944642009911
MonoBehaviour:
  m_ObjectHideFlags: 0
  m_CorrespondingSourceObject: {fileID: 0}
  m_PrefabInstance: {fileID: 0}
  m_PrefabAsset: {fileID: 0}
  m_GameObject: {fileID: 1913004789782250}
  m_Enabled: 1
  m_EditorHideFlags: 0
  m_Script: {fileID: 11500000, guid: 95b575b34f6c64348853724946c80b4d, type: 3}
  m_Name: 
  m_EditorClassIdentifier: 
  rigidbodies:
  - {fileID: 4574600009471940774}
  - {fileID: 7646690702071656612}
  - {fileID: 2491087262041322934}
  forceIntensityRange:
    min: -2.5
    max: 2.5
--- !u!114 &6868707218502548414
MonoBehaviour:
  m_ObjectHideFlags: 0
  m_CorrespondingSourceObject: {fileID: 0}
  m_PrefabInstance: {fileID: 0}
  m_PrefabAsset: {fileID: 0}
  m_GameObject: {fileID: 1913004789782250}
  m_Enabled: 1
  m_EditorHideFlags: 0
  m_Script: {fileID: 11500000, guid: 147268bc16faae849a584c6ed57013c0, type: 3}
  m_Name: 
  m_EditorClassIdentifier: 
--- !u!1 &1605637123714786520
GameObject:
  m_ObjectHideFlags: 0
  m_CorrespondingSourceObject: {fileID: 0}
  m_PrefabInstance: {fileID: 0}
  m_PrefabAsset: {fileID: 0}
  serializedVersion: 6
  m_Component:
  - component: {fileID: 7734153888891688891}
  - component: {fileID: 5041515911350516096}
  - component: {fileID: 7191893014639811290}
  m_Layer: 0
  m_Name: DropOffBoxTile (3)
  m_TagString: Untagged
  m_Icon: {fileID: 0}
  m_NavMeshLayer: 0
  m_StaticEditorFlags: 0
  m_IsActive: 1
--- !u!4 &7734153888891688891
Transform:
  m_ObjectHideFlags: 0
  m_CorrespondingSourceObject: {fileID: 0}
  m_PrefabInstance: {fileID: 0}
  m_PrefabAsset: {fileID: 0}
  m_GameObject: {fileID: 1605637123714786520}
  m_LocalRotation: {x: -0.5, y: -0.5, z: -0.5, w: 0.5}
  m_LocalPosition: {x: 1.172, y: 1.9610008, z: 0.975}
  m_LocalScale: {x: 0.25500026, y: 0.20000014, z: 0.10216673}
  m_Children: []
  m_Father: {fileID: 7374656166284838846}
  m_RootOrder: 3
  m_LocalEulerAnglesHint: {x: -90, y: -90, z: 0}
--- !u!33 &5041515911350516096
MeshFilter:
  m_ObjectHideFlags: 0
  m_CorrespondingSourceObject: {fileID: 0}
  m_PrefabInstance: {fileID: 0}
  m_PrefabAsset: {fileID: 0}
  m_GameObject: {fileID: 1605637123714786520}
  m_Mesh: {fileID: 4300000, guid: 8f01061b5466b0a4f8b5e5db29435eab, type: 3}
--- !u!23 &7191893014639811290
MeshRenderer:
  m_ObjectHideFlags: 0
  m_CorrespondingSourceObject: {fileID: 0}
  m_PrefabInstance: {fileID: 0}
  m_PrefabAsset: {fileID: 0}
  m_GameObject: {fileID: 1605637123714786520}
  m_Enabled: 1
  m_CastShadows: 1
  m_ReceiveShadows: 1
  m_DynamicOccludee: 1
  m_MotionVectors: 1
  m_LightProbeUsage: 1
  m_ReflectionProbeUsage: 1
  m_RayTracingMode: 2
  m_RenderingLayerMask: 1
  m_RendererPriority: 0
  m_Materials:
  - {fileID: 2100000, guid: 8f01061b5466b0a4f8b5e5db29435eab, type: 3}
  m_StaticBatchInfo:
    firstSubMesh: 0
    subMeshCount: 0
  m_StaticBatchRoot: {fileID: 0}
  m_ProbeAnchor: {fileID: 0}
  m_LightProbeVolumeOverride: {fileID: 0}
  m_ScaleInLightmap: 1
  m_ReceiveGI: 1
  m_PreserveUVs: 0
  m_IgnoreNormalsForChartDetection: 0
  m_ImportantGI: 0
  m_StitchLightmapSeams: 0
  m_SelectedEditorRenderState: 3
  m_MinimumChartSize: 4
  m_AutoUVMaxDistance: 0.5
  m_AutoUVMaxAngle: 89
  m_LightmapParameters: {fileID: 0}
  m_SortingLayerID: 0
  m_SortingLayer: 0
  m_SortingOrder: 0
--- !u!1 &1944724953110614668
GameObject:
  m_ObjectHideFlags: 0
  m_CorrespondingSourceObject: {fileID: 0}
  m_PrefabInstance: {fileID: 0}
  m_PrefabAsset: {fileID: 0}
  serializedVersion: 6
  m_Component:
  - component: {fileID: 6009465281964495459}
  - component: {fileID: 8029506392529472918}
  - component: {fileID: 7254732810049593777}
  m_Layer: 0
  m_Name: DropOffBoxTile (2)
  m_TagString: Untagged
  m_Icon: {fileID: 0}
  m_NavMeshLayer: 0
  m_StaticEditorFlags: 0
  m_IsActive: 1
--- !u!4 &6009465281964495459
Transform:
  m_ObjectHideFlags: 0
  m_CorrespondingSourceObject: {fileID: 0}
  m_PrefabInstance: {fileID: 0}
  m_PrefabAsset: {fileID: 0}
  m_GameObject: {fileID: 1944724953110614668}
  m_LocalRotation: {x: -0.00000019861236, y: -0.7071068, z: -0.7071068, w: 0.00000019861236}
  m_LocalPosition: {x: 1.2550037, y: 1.961, z: 3.427}
  m_LocalScale: {x: 0.255, y: 0.20000002, z: 0.1021875}
  m_Children: []
  m_Father: {fileID: 7374656166284838846}
  m_RootOrder: 2
  m_LocalEulerAnglesHint: {x: -90, y: -179.99998, z: 0}
--- !u!33 &8029506392529472918
MeshFilter:
  m_ObjectHideFlags: 0
  m_CorrespondingSourceObject: {fileID: 0}
  m_PrefabInstance: {fileID: 0}
  m_PrefabAsset: {fileID: 0}
  m_GameObject: {fileID: 1944724953110614668}
  m_Mesh: {fileID: 4300000, guid: 8f01061b5466b0a4f8b5e5db29435eab, type: 3}
--- !u!23 &7254732810049593777
MeshRenderer:
  m_ObjectHideFlags: 0
  m_CorrespondingSourceObject: {fileID: 0}
  m_PrefabInstance: {fileID: 0}
  m_PrefabAsset: {fileID: 0}
  m_GameObject: {fileID: 1944724953110614668}
  m_Enabled: 1
  m_CastShadows: 1
  m_ReceiveShadows: 1
  m_DynamicOccludee: 1
  m_MotionVectors: 1
  m_LightProbeUsage: 1
  m_ReflectionProbeUsage: 1
  m_RayTracingMode: 2
  m_RenderingLayerMask: 1
  m_RendererPriority: 0
  m_Materials:
  - {fileID: 2100000, guid: 8f01061b5466b0a4f8b5e5db29435eab, type: 3}
  m_StaticBatchInfo:
    firstSubMesh: 0
    subMeshCount: 0
  m_StaticBatchRoot: {fileID: 0}
  m_ProbeAnchor: {fileID: 0}
  m_LightProbeVolumeOverride: {fileID: 0}
  m_ScaleInLightmap: 1
  m_ReceiveGI: 1
  m_PreserveUVs: 0
  m_IgnoreNormalsForChartDetection: 0
  m_ImportantGI: 0
  m_StitchLightmapSeams: 0
  m_SelectedEditorRenderState: 3
  m_MinimumChartSize: 4
  m_AutoUVMaxDistance: 0.5
  m_AutoUVMaxAngle: 89
  m_LightmapParameters: {fileID: 0}
  m_SortingLayerID: 0
  m_SortingLayer: 0
  m_SortingOrder: 0
--- !u!1 &3961015833913702538
GameObject:
  m_ObjectHideFlags: 0
  m_CorrespondingSourceObject: {fileID: 0}
  m_PrefabInstance: {fileID: 0}
  m_PrefabAsset: {fileID: 0}
  serializedVersion: 6
  m_Component:
  - component: {fileID: 7374656166284838846}
  m_Layer: 0
  m_Name: DropOffBox
  m_TagString: Untagged
  m_Icon: {fileID: 0}
  m_NavMeshLayer: 0
  m_StaticEditorFlags: 0
  m_IsActive: 0
--- !u!4 &7374656166284838846
Transform:
  m_ObjectHideFlags: 0
  m_CorrespondingSourceObject: {fileID: 0}
  m_PrefabInstance: {fileID: 0}
  m_PrefabAsset: {fileID: 0}
  m_GameObject: {fileID: 3961015833913702538}
  m_LocalRotation: {x: -0, y: -1, z: -0, w: 0}
  m_LocalPosition: {x: -0.03453573, y: 0.020000001, z: 0}
  m_LocalScale: {x: 1, y: 1, z: 1}
  m_Children:
  - {fileID: 4352667671047830445}
  - {fileID: 7832200456883835466}
  - {fileID: 6009465281964495459}
  - {fileID: 7734153888891688891}
  - {fileID: 5649763210325805675}
  m_Father: {fileID: 4529018377482200}
  m_RootOrder: 2
  m_LocalEulerAnglesHint: {x: 0, y: 0, z: 0}
--- !u!1 &4352667671048120205
GameObject:
  m_ObjectHideFlags: 0
  m_CorrespondingSourceObject: {fileID: 0}
  m_PrefabInstance: {fileID: 0}
  m_PrefabAsset: {fileID: 0}
  serializedVersion: 6
  m_Component:
  - component: {fileID: 4352667671047830445}
  - component: {fileID: 4352667671047027597}
  - component: {fileID: 4352667671045929293}
  m_Layer: 0
  m_Name: DropOffBoxTile
  m_TagString: Untagged
  m_Icon: {fileID: 0}
  m_NavMeshLayer: 0
  m_StaticEditorFlags: 0
  m_IsActive: 1
--- !u!4 &4352667671047830445
Transform:
  m_ObjectHideFlags: 0
  m_CorrespondingSourceObject: {fileID: 0}
  m_PrefabInstance: {fileID: 0}
  m_PrefabAsset: {fileID: 0}
  m_GameObject: {fileID: 4352667671048120205}
  m_LocalRotation: {x: -0, y: 1, z: -0, w: 0}
  m_LocalPosition: {x: 1.255, y: 1.92, z: 3.52}
  m_LocalScale: {x: 0.255, y: 0.2, z: 0.2}
  m_Children: []
  m_Father: {fileID: 7374656166284838846}
  m_RootOrder: 0
  m_LocalEulerAnglesHint: {x: 0, y: 0, z: 0}
--- !u!33 &4352667671047027597
MeshFilter:
  m_ObjectHideFlags: 0
  m_CorrespondingSourceObject: {fileID: 0}
  m_PrefabInstance: {fileID: 0}
  m_PrefabAsset: {fileID: 0}
  m_GameObject: {fileID: 4352667671048120205}
  m_Mesh: {fileID: 4300000, guid: 8f01061b5466b0a4f8b5e5db29435eab, type: 3}
--- !u!23 &4352667671045929293
MeshRenderer:
  m_ObjectHideFlags: 0
  m_CorrespondingSourceObject: {fileID: 0}
  m_PrefabInstance: {fileID: 0}
  m_PrefabAsset: {fileID: 0}
  m_GameObject: {fileID: 4352667671048120205}
  m_Enabled: 1
  m_CastShadows: 1
  m_ReceiveShadows: 1
  m_DynamicOccludee: 1
  m_MotionVectors: 1
  m_LightProbeUsage: 1
  m_ReflectionProbeUsage: 1
  m_RayTracingMode: 2
  m_RenderingLayerMask: 1
  m_RendererPriority: 0
  m_Materials:
  - {fileID: 2100000, guid: 8f01061b5466b0a4f8b5e5db29435eab, type: 3}
  m_StaticBatchInfo:
    firstSubMesh: 0
    subMeshCount: 0
  m_StaticBatchRoot: {fileID: 0}
  m_ProbeAnchor: {fileID: 0}
  m_LightProbeVolumeOverride: {fileID: 0}
  m_ScaleInLightmap: 1
  m_ReceiveGI: 1
  m_PreserveUVs: 0
  m_IgnoreNormalsForChartDetection: 0
  m_ImportantGI: 0
  m_StitchLightmapSeams: 0
  m_SelectedEditorRenderState: 3
  m_MinimumChartSize: 4
  m_AutoUVMaxDistance: 0.5
  m_AutoUVMaxAngle: 89
  m_LightmapParameters: {fileID: 0}
  m_SortingLayerID: 0
  m_SortingLayer: 0
  m_SortingOrder: 0
--- !u!1 &5520669469493043882
GameObject:
  m_ObjectHideFlags: 0
  m_CorrespondingSourceObject: {fileID: 0}
  m_PrefabInstance: {fileID: 0}
  m_PrefabAsset: {fileID: 0}
  serializedVersion: 6
  m_Component:
  - component: {fileID: 5649763210325805675}
  - component: {fileID: 7380345943002534045}
  - component: {fileID: 4418751350932328994}
  m_Layer: 0
  m_Name: DropOffBoxTile (4)
  m_TagString: Untagged
  m_Icon: {fileID: 0}
  m_NavMeshLayer: 0
  m_StaticEditorFlags: 0
  m_IsActive: 1
--- !u!4 &5649763210325805675
Transform:
  m_ObjectHideFlags: 0
  m_CorrespondingSourceObject: {fileID: 0}
  m_PrefabInstance: {fileID: 0}
  m_PrefabAsset: {fileID: 0}
  m_GameObject: {fileID: 5520669469493043882}
  m_LocalRotation: {x: -0.5, y: 0.5, z: 0.5, w: 0.5}
  m_LocalPosition: {x: -1.198, y: 1.9610008, z: 3.462}
  m_LocalScale: {x: 0.255, y: 0.20000002, z: 0.10216667}
  m_Children: []
  m_Father: {fileID: 7374656166284838846}
  m_RootOrder: 4
  m_LocalEulerAnglesHint: {x: -90, y: 90, z: 0}
--- !u!33 &7380345943002534045
MeshFilter:
  m_ObjectHideFlags: 0
  m_CorrespondingSourceObject: {fileID: 0}
  m_PrefabInstance: {fileID: 0}
  m_PrefabAsset: {fileID: 0}
  m_GameObject: {fileID: 5520669469493043882}
  m_Mesh: {fileID: 4300000, guid: 8f01061b5466b0a4f8b5e5db29435eab, type: 3}
--- !u!23 &4418751350932328994
MeshRenderer:
  m_ObjectHideFlags: 0
  m_CorrespondingSourceObject: {fileID: 0}
  m_PrefabInstance: {fileID: 0}
  m_PrefabAsset: {fileID: 0}
  m_GameObject: {fileID: 5520669469493043882}
  m_Enabled: 1
  m_CastShadows: 1
  m_ReceiveShadows: 1
  m_DynamicOccludee: 1
  m_MotionVectors: 1
  m_LightProbeUsage: 1
  m_ReflectionProbeUsage: 1
  m_RayTracingMode: 2
  m_RenderingLayerMask: 1
  m_RendererPriority: 0
  m_Materials:
  - {fileID: 2100000, guid: 8f01061b5466b0a4f8b5e5db29435eab, type: 3}
  m_StaticBatchInfo:
    firstSubMesh: 0
    subMeshCount: 0
  m_StaticBatchRoot: {fileID: 0}
  m_ProbeAnchor: {fileID: 0}
  m_LightProbeVolumeOverride: {fileID: 0}
  m_ScaleInLightmap: 1
  m_ReceiveGI: 1
  m_PreserveUVs: 0
  m_IgnoreNormalsForChartDetection: 0
  m_ImportantGI: 0
  m_StitchLightmapSeams: 0
  m_SelectedEditorRenderState: 3
  m_MinimumChartSize: 4
  m_AutoUVMaxDistance: 0.5
  m_AutoUVMaxAngle: 89
  m_LightmapParameters: {fileID: 0}
  m_SortingLayerID: 0
  m_SortingLayer: 0
  m_SortingOrder: 0
--- !u!1 &7886617400432174112
GameObject:
  m_ObjectHideFlags: 0
  m_CorrespondingSourceObject: {fileID: 0}
  m_PrefabInstance: {fileID: 0}
  m_PrefabAsset: {fileID: 0}
  serializedVersion: 6
  m_Component:
  - component: {fileID: 7832200456883835466}
  - component: {fileID: 6925369357797912378}
  - component: {fileID: 9060190554045164145}
  m_Layer: 0
  m_Name: DropOffBoxTile (1)
  m_TagString: Untagged
  m_Icon: {fileID: 0}
  m_NavMeshLayer: 0
  m_StaticEditorFlags: 0
  m_IsActive: 1
--- !u!4 &7832200456883835466
Transform:
  m_ObjectHideFlags: 0
  m_CorrespondingSourceObject: {fileID: 0}
  m_PrefabInstance: {fileID: 0}
  m_PrefabAsset: {fileID: 0}
  m_GameObject: {fileID: 7886617400432174112}
  m_LocalRotation: {x: -0, y: 1, z: -0, w: 0}
  m_LocalPosition: {x: 1.2550037, y: 2.93, z: 3.516}
  m_LocalScale: {x: 0.255, y: 0.20000002, z: 0.22000003}
  m_Children: []
  m_Father: {fileID: 7374656166284838846}
  m_RootOrder: 1
  m_LocalEulerAnglesHint: {x: 0, y: 0, z: 0}
--- !u!33 &6925369357797912378
MeshFilter:
  m_ObjectHideFlags: 0
  m_CorrespondingSourceObject: {fileID: 0}
  m_PrefabInstance: {fileID: 0}
  m_PrefabAsset: {fileID: 0}
  m_GameObject: {fileID: 7886617400432174112}
  m_Mesh: {fileID: 4300000, guid: 8f01061b5466b0a4f8b5e5db29435eab, type: 3}
--- !u!23 &9060190554045164145
MeshRenderer:
  m_ObjectHideFlags: 0
  m_CorrespondingSourceObject: {fileID: 0}
  m_PrefabInstance: {fileID: 0}
  m_PrefabAsset: {fileID: 0}
  m_GameObject: {fileID: 7886617400432174112}
  m_Enabled: 1
  m_CastShadows: 1
  m_ReceiveShadows: 1
  m_DynamicOccludee: 1
  m_MotionVectors: 1
  m_LightProbeUsage: 1
  m_ReflectionProbeUsage: 1
  m_RayTracingMode: 2
  m_RenderingLayerMask: 1
  m_RendererPriority: 0
  m_Materials:
  - {fileID: 2100000, guid: 8f01061b5466b0a4f8b5e5db29435eab, type: 3}
  m_StaticBatchInfo:
    firstSubMesh: 0
    subMeshCount: 0
  m_StaticBatchRoot: {fileID: 0}
  m_ProbeAnchor: {fileID: 0}
  m_LightProbeVolumeOverride: {fileID: 0}
  m_ScaleInLightmap: 1
  m_ReceiveGI: 1
  m_PreserveUVs: 0
  m_IgnoreNormalsForChartDetection: 0
  m_ImportantGI: 0
  m_StitchLightmapSeams: 0
  m_SelectedEditorRenderState: 3
  m_MinimumChartSize: 4
  m_AutoUVMaxDistance: 0.5
  m_AutoUVMaxAngle: 89
  m_LightmapParameters: {fileID: 0}
  m_SortingLayerID: 0
  m_SortingLayer: 0
  m_SortingOrder: 0
--- !u!1001 &2229709737681199375
PrefabInstance:
  m_ObjectHideFlags: 0
  serializedVersion: 2
  m_Modification:
    m_TransformParent: {fileID: 4373758356940898}
    m_Modifications:
    - target: {fileID: 1736614444305504, guid: e81d3159c18faad42b5b470122723e85, type: 3}
      propertyPath: m_Name
      value: ArcherArrow
      objectReference: {fileID: 0}
    - target: {fileID: 4452627234291680, guid: e81d3159c18faad42b5b470122723e85, type: 3}
      propertyPath: m_LocalPosition.x
      value: 107.807014
      objectReference: {fileID: 0}
    - target: {fileID: 4452627234291680, guid: e81d3159c18faad42b5b470122723e85, type: 3}
      propertyPath: m_LocalPosition.y
      value: 1.402
      objectReference: {fileID: 0}
    - target: {fileID: 4452627234291680, guid: e81d3159c18faad42b5b470122723e85, type: 3}
      propertyPath: m_LocalPosition.z
      value: 40.996002
      objectReference: {fileID: 0}
    - target: {fileID: 4452627234291680, guid: e81d3159c18faad42b5b470122723e85, type: 3}
      propertyPath: m_LocalRotation.x
      value: 0
      objectReference: {fileID: 0}
    - target: {fileID: 4452627234291680, guid: e81d3159c18faad42b5b470122723e85, type: 3}
      propertyPath: m_LocalRotation.y
      value: 0
      objectReference: {fileID: 0}
    - target: {fileID: 4452627234291680, guid: e81d3159c18faad42b5b470122723e85, type: 3}
      propertyPath: m_LocalRotation.z
      value: 0
      objectReference: {fileID: 0}
    - target: {fileID: 4452627234291680, guid: e81d3159c18faad42b5b470122723e85, type: 3}
      propertyPath: m_LocalRotation.w
      value: 1
      objectReference: {fileID: 0}
    - target: {fileID: 4452627234291680, guid: e81d3159c18faad42b5b470122723e85, type: 3}
      propertyPath: m_RootOrder
      value: 1
      objectReference: {fileID: 0}
    - target: {fileID: 4452627234291680, guid: e81d3159c18faad42b5b470122723e85, type: 3}
      propertyPath: m_LocalEulerAnglesHint.x
      value: 0
      objectReference: {fileID: 0}
    - target: {fileID: 4452627234291680, guid: e81d3159c18faad42b5b470122723e85, type: 3}
      propertyPath: m_LocalEulerAnglesHint.y
      value: 0
      objectReference: {fileID: 0}
    - target: {fileID: 4452627234291680, guid: e81d3159c18faad42b5b470122723e85, type: 3}
      propertyPath: m_LocalEulerAnglesHint.z
      value: 0
      objectReference: {fileID: 0}
    - target: {fileID: 114592189441036048, guid: e81d3159c18faad42b5b470122723e85,
        type: 3}
      propertyPath: mvtType
      value: 0
      objectReference: {fileID: 0}
    - target: {fileID: 114592189441036048, guid: e81d3159c18faad42b5b470122723e85,
        type: 3}
      propertyPath: childOnDamage
      value: 0
      objectReference: {fileID: 0}
    - target: {fileID: 114592189441036048, guid: e81d3159c18faad42b5b470122723e85,
        type: 3}
      propertyPath: obstacleLayerMask.m_Bits
      value: 0
      objectReference: {fileID: 0}
    - target: {fileID: 114714023610489896, guid: e81d3159c18faad42b5b470122723e85,
        type: 3}
      propertyPath: code
      value: 
      objectReference: {fileID: 0}
    - target: {fileID: 114714023610489896, guid: e81d3159c18faad42b5b470122723e85,
        type: 3}
      propertyPath: disableTime
      value: 0
      objectReference: {fileID: 0}
    m_RemovedComponents: []
  m_SourcePrefab: {fileID: 100100000, guid: e81d3159c18faad42b5b470122723e85, type: 3}
--- !u!4 &2233315466064584431 stripped
Transform:
  m_CorrespondingSourceObject: {fileID: 4452627234291680, guid: e81d3159c18faad42b5b470122723e85,
    type: 3}
  m_PrefabInstance: {fileID: 2229709737681199375}
  m_PrefabAsset: {fileID: 0}
--- !u!114 &2262512332233555239 stripped
MonoBehaviour:
  m_CorrespondingSourceObject: {fileID: 114714023610489896, guid: e81d3159c18faad42b5b470122723e85,
    type: 3}
  m_PrefabInstance: {fileID: 2229709737681199375}
  m_PrefabAsset: {fileID: 0}
  m_GameObject: {fileID: 0}
  m_Enabled: 1
  m_EditorHideFlags: 0
  m_Script: {fileID: 11500000, guid: 03b0fa37ecbbf6540b73f4eadebf698d, type: 3}
  m_Name: 
  m_EditorClassIdentifier: 
--- !u!1001 &4275761900876767490
PrefabInstance:
  m_ObjectHideFlags: 0
  serializedVersion: 2
  m_Modification:
    m_TransformParent: {fileID: 4373758356940898}
    m_Modifications:
    - target: {fileID: 3661296869602108780, guid: 21e663ed08f054e4187b46c6c9fffb17,
        type: 3}
      propertyPath: m_Name
      value: Hammer
      objectReference: {fileID: 0}
    - target: {fileID: 3661296869602108780, guid: 21e663ed08f054e4187b46c6c9fffb17,
        type: 3}
      propertyPath: m_IsActive
      value: 0
      objectReference: {fileID: 0}
    - target: {fileID: 6515616512683955698, guid: 21e663ed08f054e4187b46c6c9fffb17,
        type: 3}
      propertyPath: m_LocalPosition.x
      value: -0.64
      objectReference: {fileID: 0}
    - target: {fileID: 6515616512683955698, guid: 21e663ed08f054e4187b46c6c9fffb17,
        type: 3}
      propertyPath: m_LocalPosition.y
      value: -2.166442
      objectReference: {fileID: 0}
    - target: {fileID: 6515616512683955698, guid: 21e663ed08f054e4187b46c6c9fffb17,
        type: 3}
      propertyPath: m_LocalPosition.z
      value: -0.93
      objectReference: {fileID: 0}
    - target: {fileID: 6515616512683955698, guid: 21e663ed08f054e4187b46c6c9fffb17,
        type: 3}
      propertyPath: m_LocalRotation.x
      value: 0.00000019861236
      objectReference: {fileID: 0}
    - target: {fileID: 6515616512683955698, guid: 21e663ed08f054e4187b46c6c9fffb17,
        type: 3}
      propertyPath: m_LocalRotation.y
      value: -0.7071068
      objectReference: {fileID: 0}
    - target: {fileID: 6515616512683955698, guid: 21e663ed08f054e4187b46c6c9fffb17,
        type: 3}
      propertyPath: m_LocalRotation.z
      value: 0.7071068
      objectReference: {fileID: 0}
    - target: {fileID: 6515616512683955698, guid: 21e663ed08f054e4187b46c6c9fffb17,
        type: 3}
      propertyPath: m_LocalRotation.w
      value: 0.00000019861236
      objectReference: {fileID: 0}
    - target: {fileID: 6515616512683955698, guid: 21e663ed08f054e4187b46c6c9fffb17,
        type: 3}
      propertyPath: m_RootOrder
      value: 0
      objectReference: {fileID: 0}
    - target: {fileID: 6515616512683955698, guid: 21e663ed08f054e4187b46c6c9fffb17,
        type: 3}
      propertyPath: m_LocalEulerAnglesHint.x
      value: 90
      objectReference: {fileID: 0}
    - target: {fileID: 6515616512683955698, guid: 21e663ed08f054e4187b46c6c9fffb17,
        type: 3}
      propertyPath: m_LocalEulerAnglesHint.y
      value: -179.99998
      objectReference: {fileID: 0}
    - target: {fileID: 6515616512683955698, guid: 21e663ed08f054e4187b46c6c9fffb17,
        type: 3}
      propertyPath: m_LocalEulerAnglesHint.z
      value: 0
      objectReference: {fileID: 0}
    - target: {fileID: 6515616512683955698, guid: 21e663ed08f054e4187b46c6c9fffb17,
        type: 3}
      propertyPath: m_LocalScale.x
      value: 0.38831973
      objectReference: {fileID: 0}
    - target: {fileID: 6515616512683955698, guid: 21e663ed08f054e4187b46c6c9fffb17,
        type: 3}
      propertyPath: m_LocalScale.y
      value: 0.854303
      objectReference: {fileID: 0}
    - target: {fileID: 6515616512683955698, guid: 21e663ed08f054e4187b46c6c9fffb17,
        type: 3}
      propertyPath: m_LocalScale.z
      value: 0.38831994
      objectReference: {fileID: 0}
    m_RemovedComponents: []
  m_SourcePrefab: {fileID: 100100000, guid: 21e663ed08f054e4187b46c6c9fffb17, type: 3}
--- !u!4 &7006071019942900976 stripped
Transform:
  m_CorrespondingSourceObject: {fileID: 6515616512683955698, guid: 21e663ed08f054e4187b46c6c9fffb17,
    type: 3}
  m_PrefabInstance: {fileID: 4275761900876767490}
  m_PrefabAsset: {fileID: 0}
--- !u!1 &691589316627563630 stripped
GameObject:
  m_CorrespondingSourceObject: {fileID: 3661296869602108780, guid: 21e663ed08f054e4187b46c6c9fffb17,
    type: 3}
  m_PrefabInstance: {fileID: 4275761900876767490}
  m_PrefabAsset: {fileID: 0}
