%YAML 1.1
%TAG !u! tag:unity3d.com,2011:
--- !u!1 &1061421805667030
GameObject:
  m_ObjectHideFlags: 0
  m_CorrespondingSourceObject: {fileID: 0}
  m_PrefabInstance: {fileID: 0}
  m_PrefabAsset: {fileID: 0}
  serializedVersion: 6
  m_Component:
  - component: {fileID: 4108123282928944}
  - component: {fileID: 65503900590945896}
  - component: {fileID: 54287236491345108}
  - component: {fileID: 208782736823107360}
  - component: {fileID: 82106844436554418}
  - component: {fileID: 114506758219312058}
  - component: {fileID: 114283850918091728}
  - component: {fileID: 114044931561043238}
  - component: {fileID: 114325795762460446}
  - component: {fileID: 114989124840670714}
  - component: {fileID: 114272352947972550}
  - component: {fileID: 114967401057477094}
  - component: {fileID: 6886483379963315695}
  m_Layer: 10
  m_Name: SmallTower
  m_TagString: Untagged
  m_Icon: {fileID: 0}
  m_NavMeshLayer: 0
  m_StaticEditorFlags: 0
  m_IsActive: 1
--- !u!4 &4108123282928944
Transform:
  m_ObjectHideFlags: 0
  m_CorrespondingSourceObject: {fileID: 0}
  m_PrefabInstance: {fileID: 0}
  m_PrefabAsset: {fileID: 0}
  m_GameObject: {fileID: 1061421805667030}
  m_LocalRotation: {x: -0, y: -0, z: -0, w: 1}
  m_LocalPosition: {x: 13.53, y: 0, z: 16.32}
  m_LocalScale: {x: 1, y: 1, z: 1}
  m_Children:
  - {fileID: 4798393859675466}
  - {fileID: 4794879208654596}
  - {fileID: 4245547062612810}
  - {fileID: 4103228497109666}
  - {fileID: 4392913228504378}
  - {fileID: 4844927283568626}
  - {fileID: 4062011883394204}
  m_Father: {fileID: 0}
  m_RootOrder: 0
  m_LocalEulerAnglesHint: {x: 0, y: 0, z: 0}
--- !u!65 &65503900590945896
BoxCollider:
  m_ObjectHideFlags: 0
  m_CorrespondingSourceObject: {fileID: 0}
  m_PrefabInstance: {fileID: 0}
  m_PrefabAsset: {fileID: 0}
  m_GameObject: {fileID: 1061421805667030}
  m_Material: {fileID: 0}
  m_IsTrigger: 1
  m_Enabled: 1
  serializedVersion: 2
  m_Size: {x: 2, y: 4.5, z: 2}
  m_Center: {x: 0, y: 2.25, z: 0}
--- !u!54 &54287236491345108
Rigidbody:
  m_ObjectHideFlags: 0
  m_CorrespondingSourceObject: {fileID: 0}
  m_PrefabInstance: {fileID: 0}
  m_PrefabAsset: {fileID: 0}
  m_GameObject: {fileID: 1061421805667030}
  serializedVersion: 2
  m_Mass: 1
  m_Drag: 0
  m_AngularDrag: 0.05
  m_UseGravity: 0
  m_IsKinematic: 1
  m_Interpolate: 0
  m_Constraints: 0
  m_CollisionDetection: 0
--- !u!208 &208782736823107360
NavMeshObstacle:
  m_ObjectHideFlags: 0
  m_CorrespondingSourceObject: {fileID: 0}
  m_PrefabInstance: {fileID: 0}
  m_PrefabAsset: {fileID: 0}
  m_GameObject: {fileID: 1061421805667030}
  m_Enabled: 1
  serializedVersion: 3
  m_Shape: 1
  m_Extents: {x: 0.5, y: 1.5, z: 0.5}
  m_MoveThreshold: 0.1
  m_Carve: 1
  m_CarveOnlyStationary: 1
  m_Center: {x: 0, y: 2, z: 0}
  m_TimeToStationary: 0.5
--- !u!82 &82106844436554418
AudioSource:
  m_ObjectHideFlags: 0
  m_CorrespondingSourceObject: {fileID: 0}
  m_PrefabInstance: {fileID: 0}
  m_PrefabAsset: {fileID: 0}
  m_GameObject: {fileID: 1061421805667030}
  m_Enabled: 1
  serializedVersion: 4
  OutputAudioMixerGroup: {fileID: 0}
  m_audioClip: {fileID: 0}
  m_PlayOnAwake: 0
  m_Volume: 1
  m_Pitch: 1
  Loop: 0
  Mute: 0
  Spatialize: 0
  SpatializePostEffects: 0
  Priority: 128
  DopplerLevel: 0
  MinDistance: 1
  MaxDistance: 20
  Pan2D: 0
  rolloffMode: 1
  BypassEffects: 0
  BypassListenerEffects: 0
  BypassReverbZones: 0
  rolloffCustomCurve:
    serializedVersion: 2
    m_Curve:
    - serializedVersion: 3
      time: 0
      value: 1
      inSlope: 0
      outSlope: 0
      tangentMode: 0
      weightedMode: 0
      inWeight: 0.33333334
      outWeight: 0.33333334
    - serializedVersion: 3
      time: 1
      value: 0
      inSlope: 0
      outSlope: 0
      tangentMode: 0
      weightedMode: 0
      inWeight: 0.33333334
      outWeight: 0.33333334
    m_PreInfinity: 2
    m_PostInfinity: 2
    m_RotationOrder: 4
  panLevelCustomCurve:
    serializedVersion: 2
    m_Curve:
    - serializedVersion: 3
      time: 0
      value: 1
      inSlope: 0
      outSlope: 0
      tangentMode: 0
      weightedMode: 0
      inWeight: 0.33333334
      outWeight: 0.33333334
    m_PreInfinity: 2
    m_PostInfinity: 2
    m_RotationOrder: 0
  spreadCustomCurve:
    serializedVersion: 2
    m_Curve:
    - serializedVersion: 3
      time: 0
      value: 0
      inSlope: 0
      outSlope: 0
      tangentMode: 0
      weightedMode: 0
      inWeight: 0.33333334
      outWeight: 0.33333334
    m_PreInfinity: 2
    m_PostInfinity: 2
    m_RotationOrder: 0
  reverbZoneMixCustomCurve:
    serializedVersion: 2
    m_Curve:
    - serializedVersion: 3
      time: 0
      value: 1
      inSlope: 0
      outSlope: 0
      tangentMode: 0
      weightedMode: 0
      inWeight: 0.33333334
      outWeight: 0.33333334
    m_PreInfinity: 2
    m_PostInfinity: 2
    m_RotationOrder: 0
--- !u!114 &114506758219312058
MonoBehaviour:
  m_ObjectHideFlags: 0
  m_CorrespondingSourceObject: {fileID: 0}
  m_PrefabInstance: {fileID: 0}
  m_PrefabAsset: {fileID: 0}
  m_GameObject: {fileID: 1061421805667030}
  m_Enabled: 1
  m_EditorHideFlags: 0
  m_Script: {fileID: 11500000, guid: c7d5b0dba8aa2cc44938be61a31f9eed, type: 3}
  m_Name: 
  m_EditorClassIdentifier: 
  workerPositions:
  - position: {fileID: 0}
  - position: {fileID: 0}
  - position: {fileID: 0}
  - position: {fileID: 0}
--- !u!114 &114283850918091728
MonoBehaviour:
  m_ObjectHideFlags: 0
  m_CorrespondingSourceObject: {fileID: 0}
  m_PrefabInstance: {fileID: 0}
  m_PrefabAsset: {fileID: 0}
  m_GameObject: {fileID: 1061421805667030}
  m_Enabled: 1
  m_EditorHideFlags: 0
  m_Script: {fileID: 11500000, guid: 77c8259a54b90ef41b0f8f269b8d4e5c, type: 3}
  m_Name: 
  m_EditorClassIdentifier: 
  target:
  - {fileID: 114040935660867652, guid: 1b4f6ee4011f1024093e3b0163471545, type: 3}
  upgradeEffect: {fileID: 8632042194352013583, guid: 3d225f87396336d4eba4e114152d5c1c,
    type: 3}
  upgradeSpawnedInstances: 1
  triggerUpgrades: []
  newTaskInfo:
    description: 
    icon: {fileID: 0}
    reloadTime: 0
    newResources: []
--- !u!114 &114044931561043238
MonoBehaviour:
  m_ObjectHideFlags: 0
  m_CorrespondingSourceObject: {fileID: 0}
  m_PrefabInstance: {fileID: 0}
  m_PrefabAsset: {fileID: 0}
  m_GameObject: {fileID: 1061421805667030}
  m_Enabled: 1
  m_EditorHideFlags: 0
  m_Script: {fileID: 11500000, guid: c536639a25fefa04d87680118b04862c, type: 3}
  m_Name: 
  m_EditorClassIdentifier: 
  editorElementID: 0
  editorTabID: 0
  isActive: 1
  code: small_tower_task_launcher
  tasksList:
  - code: upgrade_small_tower
    factionTypes: []
    description: Upgrade the small tower into a taller tower that fires fire arrows,
      has more health & deals higher damage.
    type: 17
    allowedType: 3
    taskPanelCategory: 0
    icon: {fileID: 21300000, guid: 47554cf8c548c844ca8440e3b3adb3b8, type: 3}
    reloadTime: 17
    requiredResources:
    - Name: Knowledge
      Amount: 350
    - Name: Wood
      Amount: 80
    - Name: Metal
      Amount: 120
    missingReqData:
      icon: {fileID: 0}
      color: {r: 1, g: 0, b: 0, a: 1}
    completeResources: []
    completeAudio:
      fetchType: 0
      audioClips: []
    cancelAudio:
      fetchType: 0
      audioClips: []
    launchAudio:
      fetchType: 0
      audioClips:
      - {fileID: 8300000, guid: eff065cb00ab78046bdec677a94e6284, type: 3}
    useMode: 2
    _isAvailable: 1
    unitCreationAttributes:
      prefabs: []
    upgrade: {fileID: 114283850918091728}
    upgradeTargetID: 0
    oneInstanceUpgrade: 0
    unlockAttackTypes: []
    lockAttackTypes: []
    switchAttack: 0
    targetAttackType: target_attack_code
    updateTasksOnComplete: []
    tasksToUnlock: []
    tasksToLock: []
    launchEvent:
      m_PersistentCalls:
        m_Calls: []
    startEvent:
      m_PersistentCalls:
        m_Calls: []
    completeEvent:
      m_PersistentCalls:
        m_Calls: []
    cancelEvent:
      m_PersistentCalls:
        m_Calls: []
  minHealth: 70
  maxTasks: 1
  launchDeclinedAudio: {fileID: 0}
--- !u!114 &114325795762460446
MonoBehaviour:
  m_ObjectHideFlags: 0
  m_CorrespondingSourceObject: {fileID: 0}
  m_PrefabInstance: {fileID: 0}
  m_PrefabAsset: {fileID: 0}
  m_GameObject: {fileID: 1061421805667030}
  m_Enabled: 1
  m_EditorHideFlags: 0
  m_Script: {fileID: 11500000, guid: fb2547be28dc0f542932522ee9053f81, type: 3}
  m_Name: 
  m_EditorClassIdentifier: 
  _name: Small Tower
  code: small_tower
  category: MilitaryBuilding
  description: This building attacks enemy units in range.
  icon: {fileID: 21300000, guid: 769acd0672be66746b0c5a6c813d39f6, type: 3}
  free: 0
  selectionAudio:
    fetchType: 0
    audioClips:
    - {fileID: 8300000, guid: 676963385a6793043a62f4d4953c8e84, type: 3}
  plane: {fileID: 1090971365596634}
  model: {fileID: 1193180032385304}
  selection: {fileID: 114200368542591532}
  radius: 1.4
  factionID: 0
  coloredRenderers:
  - renderer: {fileID: 23048331675743820}
    materialID: 1
  - renderer: {fileID: 23042227099438040}
    materialID: 0
  - renderer: {fileID: 23760079221298854}
    materialID: 1
  - renderer: {fileID: 23653621300445590}
    materialID: 1
  initResources:
  - Name: FactionPower
    Amount: 3
  disableResources:
  - Name: FactionPower
    Amount: -3
  taskPanelCategory: 1
  requiredBuildings: []
  resources:
  - Name: Wood
    Amount: 40
  - Name: Metal
    Amount: 60
  missingReqData:
    icon: {fileID: 0}
    color: {r: 1, g: 0, b: 0, a: 1}
  addPopulation: 0
  bonusResources: []
  placedByDefault: 0
  spawnPosition: {fileID: 0}
  gotoPosition: {fileID: 0}
  regulatorData:
    allTypes: {fileID: 0}
    typeSpecific:
    - ignoreFactionType: 1
      type: {fileID: 0}
      ignoreNPCType: 0
      npcType: {fileID: 11400000, guid: 3493c8af534d298418a9824742a03c90, type: 2}
      value: {fileID: 11400000, guid: dab7ebce8c0d1fa4eaca83f73d6a2ca0, type: 2}
    - ignoreFactionType: 1
      type: {fileID: 0}
      ignoreNPCType: 0
      npcType: {fileID: 11400000, guid: a5ea2df505968cd43ad2f45542b531b2, type: 2}
      value: {fileID: 11400000, guid: 568308e8bbf3f9d448fffa87841ed707, type: 2}
--- !u!114 &114989124840670714
MonoBehaviour:
  m_ObjectHideFlags: 0
  m_CorrespondingSourceObject: {fileID: 0}
  m_PrefabInstance: {fileID: 0}
  m_PrefabAsset: {fileID: 0}
  m_GameObject: {fileID: 1061421805667030}
  m_Enabled: 1
  m_EditorHideFlags: 0
  m_Script: {fileID: 11500000, guid: 8bbae8f71eab72148a833e0d515fa7a2, type: 3}
  m_Name: 
  m_EditorClassIdentifier: 
  placeOutsideBorder: 0
  placeNearResource: 0
  resourceType: {fileID: 11400000, guid: 7fad61ec7c519fc48bda4c4cab2cb727, type: 2}
  resourceRange: 10
--- !u!114 &114272352947972550
MonoBehaviour:
  m_ObjectHideFlags: 0
  m_CorrespondingSourceObject: {fileID: 0}
  m_PrefabInstance: {fileID: 0}
  m_PrefabAsset: {fileID: 0}
  m_GameObject: {fileID: 1061421805667030}
  m_Enabled: 1
  m_EditorHideFlags: 0
  m_Script: {fileID: 11500000, guid: 740dc3a95f58a494a9bf1c0632d56f74, type: 3}
  m_Name: 
  m_EditorClassIdentifier: 
  maxHealth: 300
  hoverHealthBarY: 6
  canBeAttacked: 1
  takeDamage: 1
  damageEffect: {fileID: 0}
  destroyObject: 1
  destroyObjectTime: 0
  destroyAward:
  - Name: Metal
    Amount: 40
  destructionAudio:
    fetchType: 0
    audioClips: []
  destructionEffect: {fileID: 6682891908931458064, guid: a31f8730388d607439204e73829f56d7,
    type: 3}
  constructionStates:
  - healthRange:
      min: 0
      max: 300
    showChildObjects:
    - {fileID: 1297812725101894}
    - {fileID: 1193180032385304}
    hideChildObjects: []
  constructionCompleteState:
    healthRange:
      min: 0
      max: 0
    showChildObjects: []
    hideChildObjects:
    - {fileID: 1297812725101894}
  builtStates:
  - healthRange:
      min: 200
      max: 300
    showChildObjects: []
    hideChildObjects:
    - {fileID: 7239133388311218954}
  - healthRange:
      min: 0
      max: 200
    showChildObjects:
    - {fileID: 7239133388311218954}
    hideChildObjects: []
--- !u!114 &114967401057477094
MonoBehaviour:
  m_ObjectHideFlags: 0
  m_CorrespondingSourceObject: {fileID: 0}
  m_PrefabInstance: {fileID: 0}
  m_PrefabAsset: {fileID: 0}
  m_GameObject: {fileID: 1061421805667030}
  m_Enabled: 1
  m_EditorHideFlags: 0
  m_Script: {fileID: 11500000, guid: 347e9f0293184a34987dcc5faa411f39, type: 3}
  m_Name: 
  m_EditorClassIdentifier: 
  tabID: 0
  isLocked: 0
  isActive: 1
  code: TowerBasic
  basic: 1
  engageAllTypes: 0
  engageUnits: 1
  engageFlyingUnits: 1
  engageBuildings: 0
  engageInList: 0
  codesList:
    type: 0
    code: []
  direct: 0
  engageOnAssign: 0
  engageWhenAttacked: 0
  engageOnce: 0
  engageFriendly: 0
  engageInRange: 1
  engageInRangeIdleOnly: 1
  searchRange: 10
  searchReload: 2
  delayDuration: 0
  delayTriggerEnabled: 0
  useReload: 1
  reloadDuration: 1.7
  coolDownEnabled: 0
  coolDownDuration: 10
  requireTarget: 1
  damage:
    canDealDamage: 1
    unitDamage: 10
    buildingDamage: 10
    customDamages: []
    areaAttackEnabled: 0
    attackRanges: []
    dotEnabled: 0
    dotAttributes:
      infinite: 0
      duration: 0
      cycleDuration: 0
    effect: {fileID: 0}
    effectLifeTime: 0
  reloadDealtDamage: 0
  weapon:
    weaponObject: {fileID: 0}
    freezeRotationX: 0
    freezeRotationY: 1
    freezeRotationZ: 0
    smoothRotation: 1
    rotateInRangeOnly: 0
    rotationDamping: 2
    forceIdleRotation: 1
    idleAngles: {x: 0, y: 0, z: 0}
  lineOfSight:
    enable: 0
    useWeaponObject: 0
    LOSAngle: 40
    ignoreRotationX: 0
    ignoreRotationY: 0
    ignoreRotationZ: 0
  attackObjectLauncher:
    launchType: 0
    sources:
    - attackObject: {fileID: 114714023610489896, guid: e81d3159c18faad42b5b470122723e85,
        type: 3}
      launchPosition: {fileID: 4062011883394204}
      accuracyModifier: {x: 0, y: 0, z: 0}
      delayTime: 0.2
      createInDelay: 0
      damageInDelay: 1
      delayParentObject: {fileID: 0}
  attackTaskUI: {fileID: 11400000, guid: 91781cf5be89328499e3773d965eadca, type: 2}
  attackerInRangeEvent:
    m_PersistentCalls:
      m_Calls: []
  targetLockedEvent:
    m_PersistentCalls:
      m_Calls: []
  attackPerformedEvent:
    m_PersistentCalls:
      m_Calls: []
  attackDamageDealtEvent:
    m_PersistentCalls:
      m_Calls: []
  switchTaskUI: {fileID: 0}
  orderAudio:
    fetchType: 0
    audioClips: []
  attackAudio:
    fetchType: 0
    audioClips:
    - {fileID: 8300000, guid: 51342d39e8be79144a81856bb418bef4, type: 3}
--- !u!114 &6886483379963315695
MonoBehaviour:
  m_ObjectHideFlags: 0
  m_CorrespondingSourceObject: {fileID: 0}
  m_PrefabInstance: {fileID: 0}
  m_PrefabAsset: {fileID: 0}
  m_GameObject: {fileID: 1061421805667030}
  m_Enabled: 0
  m_EditorHideFlags: 0
  m_Script: {fileID: 11500000, guid: 44a2d482a17f7eb4d8d66d37663a6728, type: 3}
  m_Name: 
  m_EditorClassIdentifier: 
  destroyOnDisable: 1
  constructionTransform: {fileID: 4392913228504378}
  maxHeight: 0
  initialHeight: -2.75
  smoothTime: 0.5
--- !u!1 &1090971365596634
GameObject:
  m_ObjectHideFlags: 0
  m_CorrespondingSourceObject: {fileID: 0}
  m_PrefabInstance: {fileID: 0}
  m_PrefabAsset: {fileID: 0}
  serializedVersion: 6
  m_Component:
  - component: {fileID: 4245547062612810}
  - component: {fileID: 33045638943979758}
  - component: {fileID: 23146944430916980}
  m_Layer: 10
  m_Name: Plane
  m_TagString: Untagged
  m_Icon: {fileID: 0}
  m_NavMeshLayer: 0
  m_StaticEditorFlags: 0
  m_IsActive: 1
--- !u!4 &4245547062612810
Transform:
  m_ObjectHideFlags: 0
  m_CorrespondingSourceObject: {fileID: 0}
  m_PrefabInstance: {fileID: 0}
  m_PrefabAsset: {fileID: 0}
  m_GameObject: {fileID: 1090971365596634}
  m_LocalRotation: {x: 0, y: 0, z: 0, w: 1}
  m_LocalPosition: {x: 0, y: 0.03, z: 0}
  m_LocalScale: {x: 0.2, y: 0.7, z: 0.2}
  m_Children: []
  m_Father: {fileID: 4108123282928944}
  m_RootOrder: 2
  m_LocalEulerAnglesHint: {x: 0, y: 0, z: 0}
--- !u!33 &33045638943979758
MeshFilter:
  m_ObjectHideFlags: 0
  m_CorrespondingSourceObject: {fileID: 0}
  m_PrefabInstance: {fileID: 0}
  m_PrefabAsset: {fileID: 0}
  m_GameObject: {fileID: 1090971365596634}
  m_Mesh: {fileID: 10209, guid: 0000000000000000e000000000000000, type: 0}
--- !u!23 &23146944430916980
MeshRenderer:
  m_ObjectHideFlags: 0
  m_CorrespondingSourceObject: {fileID: 0}
  m_PrefabInstance: {fileID: 0}
  m_PrefabAsset: {fileID: 0}
  m_GameObject: {fileID: 1090971365596634}
  m_Enabled: 1
  m_CastShadows: 1
  m_ReceiveShadows: 1
  m_DynamicOccludee: 1
  m_MotionVectors: 1
  m_LightProbeUsage: 1
  m_ReflectionProbeUsage: 1
  m_RenderingLayerMask: 4294967295
  m_RendererPriority: 0
  m_Materials:
  - {fileID: 2100000, guid: 8c62b43315aec3648b8377753c2e308d, type: 2}
  m_StaticBatchInfo:
    firstSubMesh: 0
    subMeshCount: 0
  m_StaticBatchRoot: {fileID: 0}
  m_ProbeAnchor: {fileID: 0}
  m_LightProbeVolumeOverride: {fileID: 0}
  m_ScaleInLightmap: 1
  m_PreserveUVs: 1
  m_IgnoreNormalsForChartDetection: 0
  m_ImportantGI: 0
  m_StitchLightmapSeams: 0
  m_SelectedEditorRenderState: 3
  m_MinimumChartSize: 4
  m_AutoUVMaxDistance: 0.5
  m_AutoUVMaxAngle: 89
  m_LightmapParameters: {fileID: 0}
  m_SortingLayerID: 0
  m_SortingLayer: 0
  m_SortingOrder: 0
--- !u!1 &1121438839295312
GameObject:
  m_ObjectHideFlags: 0
  m_CorrespondingSourceObject: {fileID: 0}
  m_PrefabInstance: {fileID: 0}
  m_PrefabAsset: {fileID: 0}
  serializedVersion: 6
  m_Component:
  - component: {fileID: 4453288678755948}
  - component: {fileID: 33463107807678002}
  - component: {fileID: 23653621300445590}
  m_Layer: 0
  m_Name: towerSquareTopRoof
  m_TagString: Untagged
  m_Icon: {fileID: 0}
  m_NavMeshLayer: 0
  m_StaticEditorFlags: 0
  m_IsActive: 1
--- !u!4 &4453288678755948
Transform:
  m_ObjectHideFlags: 0
  m_CorrespondingSourceObject: {fileID: 0}
  m_PrefabInstance: {fileID: 0}
  m_PrefabAsset: {fileID: 0}
  m_GameObject: {fileID: 1121438839295312}
  m_LocalRotation: {x: -0, y: -0, z: -0, w: 1}
  m_LocalPosition: {x: 0, y: 18.83, z: -0.7}
  m_LocalScale: {x: 1, y: 1, z: 1}
  m_Children: []
  m_Father: {fileID: 4392913228504378}
  m_RootOrder: 1
  m_LocalEulerAnglesHint: {x: 0, y: 0, z: 0}
--- !u!33 &33463107807678002
MeshFilter:
  m_ObjectHideFlags: 0
  m_CorrespondingSourceObject: {fileID: 0}
  m_PrefabInstance: {fileID: 0}
  m_PrefabAsset: {fileID: 0}
  m_GameObject: {fileID: 1121438839295312}
  m_Mesh: {fileID: 4300000, guid: 89a683424cb27b5459f1b8c8d82ca83f, type: 3}
--- !u!23 &23653621300445590
MeshRenderer:
  m_ObjectHideFlags: 0
  m_CorrespondingSourceObject: {fileID: 0}
  m_PrefabInstance: {fileID: 0}
  m_PrefabAsset: {fileID: 0}
  m_GameObject: {fileID: 1121438839295312}
  m_Enabled: 1
  m_CastShadows: 1
  m_ReceiveShadows: 1
  m_DynamicOccludee: 1
  m_MotionVectors: 1
  m_LightProbeUsage: 1
  m_ReflectionProbeUsage: 1
  m_RenderingLayerMask: 4294967295
  m_RendererPriority: 0
  m_Materials:
  - {fileID: 2100000, guid: ab7f7360b5b715f4c883edad68700d29, type: 2}
  - {fileID: 2100000, guid: 0bf7ef647d62e724d91a9dd3b1315248, type: 2}
  m_StaticBatchInfo:
    firstSubMesh: 0
    subMeshCount: 0
  m_StaticBatchRoot: {fileID: 0}
  m_ProbeAnchor: {fileID: 0}
  m_LightProbeVolumeOverride: {fileID: 0}
  m_ScaleInLightmap: 1
  m_PreserveUVs: 0
  m_IgnoreNormalsForChartDetection: 0
  m_ImportantGI: 0
  m_StitchLightmapSeams: 0
  m_SelectedEditorRenderState: 3
  m_MinimumChartSize: 4
  m_AutoUVMaxDistance: 0.5
  m_AutoUVMaxAngle: 89
  m_LightmapParameters: {fileID: 0}
  m_SortingLayerID: 0
  m_SortingLayer: 0
  m_SortingOrder: 0
--- !u!1 &1193180032385304
GameObject:
  m_ObjectHideFlags: 0
  m_CorrespondingSourceObject: {fileID: 0}
  m_PrefabInstance: {fileID: 0}
  m_PrefabAsset: {fileID: 0}
  serializedVersion: 6
  m_Component:
  - component: {fileID: 4392913228504378}
  - component: {fileID: 33364130250613090}
  - component: {fileID: 23354753523856550}
  m_Layer: 0
  m_Name: TowerModel
  m_TagString: Untagged
  m_Icon: {fileID: 0}
  m_NavMeshLayer: 0
  m_StaticEditorFlags: 0
  m_IsActive: 1
--- !u!4 &4392913228504378
Transform:
  m_ObjectHideFlags: 0
  m_CorrespondingSourceObject: {fileID: 0}
  m_PrefabInstance: {fileID: 0}
  m_PrefabAsset: {fileID: 0}
  m_GameObject: {fileID: 1193180032385304}
  m_LocalRotation: {x: -0, y: -0, z: -0, w: 1}
  m_LocalPosition: {x: -0.75, y: 0, z: -0.62}
  m_LocalScale: {x: 0.15, y: 0.15, z: 0.15}
  m_Children:
  - {fileID: 4565228955685726}
  - {fileID: 4453288678755948}
  - {fileID: 4647046701177782}
  - {fileID: 4430231257855790}
  m_Father: {fileID: 4108123282928944}
  m_RootOrder: 4
  m_LocalEulerAnglesHint: {x: 0, y: 0, z: 0}
--- !u!33 &33364130250613090
MeshFilter:
  m_ObjectHideFlags: 0
  m_CorrespondingSourceObject: {fileID: 0}
  m_PrefabInstance: {fileID: 0}
  m_PrefabAsset: {fileID: 0}
  m_GameObject: {fileID: 1193180032385304}
  m_Mesh: {fileID: 4300000, guid: 687d12c0280e80544a71ee81c576d320, type: 3}
--- !u!23 &23354753523856550
MeshRenderer:
  m_ObjectHideFlags: 0
  m_CorrespondingSourceObject: {fileID: 0}
  m_PrefabInstance: {fileID: 0}
  m_PrefabAsset: {fileID: 0}
  m_GameObject: {fileID: 1193180032385304}
  m_Enabled: 1
  m_CastShadows: 1
  m_ReceiveShadows: 1
  m_DynamicOccludee: 1
  m_MotionVectors: 1
  m_LightProbeUsage: 1
  m_ReflectionProbeUsage: 1
  m_RenderingLayerMask: 4294967295
  m_RendererPriority: 0
  m_Materials:
  - {fileID: 2100000, guid: ab7f7360b5b715f4c883edad68700d29, type: 2}
  - {fileID: 2100000, guid: 8f512dd9f90fc3940a6625e492f60fe3, type: 2}
  m_StaticBatchInfo:
    firstSubMesh: 0
    subMeshCount: 0
  m_StaticBatchRoot: {fileID: 0}
  m_ProbeAnchor: {fileID: 0}
  m_LightProbeVolumeOverride: {fileID: 0}
  m_ScaleInLightmap: 1
  m_PreserveUVs: 0
  m_IgnoreNormalsForChartDetection: 0
  m_ImportantGI: 0
  m_StitchLightmapSeams: 0
  m_SelectedEditorRenderState: 3
  m_MinimumChartSize: 4
  m_AutoUVMaxDistance: 0.5
  m_AutoUVMaxAngle: 89
  m_LightmapParameters: {fileID: 0}
  m_SortingLayerID: 0
  m_SortingLayer: 0
  m_SortingOrder: 0
--- !u!1 &1256130112261620
GameObject:
  m_ObjectHideFlags: 0
  m_CorrespondingSourceObject: {fileID: 0}
  m_PrefabInstance: {fileID: 0}
  m_PrefabAsset: {fileID: 0}
  serializedVersion: 6
  m_Component:
  - component: {fileID: 4794879208654596}
  - component: {fileID: 54740334262771852}
  - component: {fileID: 65195223948646008}
  - component: {fileID: 114200368542591532}
  m_Layer: 0
  m_Name: SelectionObj
  m_TagString: Untagged
  m_Icon: {fileID: 0}
  m_NavMeshLayer: 0
  m_StaticEditorFlags: 0
  m_IsActive: 1
--- !u!4 &4794879208654596
Transform:
  m_ObjectHideFlags: 0
  m_CorrespondingSourceObject: {fileID: 0}
  m_PrefabInstance: {fileID: 0}
  m_PrefabAsset: {fileID: 0}
  m_GameObject: {fileID: 1256130112261620}
  m_LocalRotation: {x: 0, y: 0, z: 0, w: 1}
  m_LocalPosition: {x: 0, y: 0, z: 0}
  m_LocalScale: {x: 1, y: 1, z: 1}
  m_Children: []
  m_Father: {fileID: 4108123282928944}
  m_RootOrder: 1
  m_LocalEulerAnglesHint: {x: 0, y: 0, z: 0}
--- !u!54 &54740334262771852
Rigidbody:
  m_ObjectHideFlags: 0
  m_CorrespondingSourceObject: {fileID: 0}
  m_PrefabInstance: {fileID: 0}
  m_PrefabAsset: {fileID: 0}
  m_GameObject: {fileID: 1256130112261620}
  serializedVersion: 2
  m_Mass: 1
  m_Drag: 0
  m_AngularDrag: 0.05
  m_UseGravity: 0
  m_IsKinematic: 1
  m_Interpolate: 0
  m_Constraints: 0
  m_CollisionDetection: 0
--- !u!65 &65195223948646008
BoxCollider:
  m_ObjectHideFlags: 0
  m_CorrespondingSourceObject: {fileID: 0}
  m_PrefabInstance: {fileID: 0}
  m_PrefabAsset: {fileID: 0}
  m_GameObject: {fileID: 1256130112261620}
  m_Material: {fileID: 0}
  m_IsTrigger: 0
  m_Enabled: 1
  serializedVersion: 2
  m_Size: {x: 1.5, y: 4.5, z: 1.5}
  m_Center: {x: 0, y: 2.25, z: 0}
--- !u!114 &114200368542591532
MonoBehaviour:
  m_ObjectHideFlags: 0
  m_CorrespondingSourceObject: {fileID: 0}
  m_PrefabInstance: {fileID: 0}
  m_PrefabAsset: {fileID: 0}
  m_GameObject: {fileID: 1256130112261620}
  m_Enabled: 1
  m_EditorHideFlags: 0
  m_Script: {fileID: 11500000, guid: 7c058470393f4b44d833a1f6cac8ebcf, type: 3}
  m_Name: 
  m_EditorClassIdentifier: 
  canSelect: 1
  selectOwnerOnly: 0
  minimapIconSize: 0.5
--- !u!1 &1297812725101894
GameObject:
  m_ObjectHideFlags: 0
  m_CorrespondingSourceObject: {fileID: 0}
  m_PrefabInstance: {fileID: 0}
  m_PrefabAsset: {fileID: 0}
  serializedVersion: 6
  m_Component:
  - component: {fileID: 4103228497109666}
  m_Layer: 0
  m_Name: UnderConstruction
  m_TagString: Untagged
  m_Icon: {fileID: 0}
  m_NavMeshLayer: 0
  m_StaticEditorFlags: 0
  m_IsActive: 0
--- !u!4 &4103228497109666
Transform:
  m_ObjectHideFlags: 0
  m_CorrespondingSourceObject: {fileID: 0}
  m_PrefabInstance: {fileID: 0}
  m_PrefabAsset: {fileID: 0}
  m_GameObject: {fileID: 1297812725101894}
  m_LocalRotation: {x: -0, y: -0, z: -0, w: 1}
  m_LocalPosition: {x: -0.32, y: 0, z: -0.35}
  m_LocalScale: {x: 0.6591, y: 0.6591, z: 0.6591}
  m_Children:
  - {fileID: 1567958135663602242}
  m_Father: {fileID: 4108123282928944}
  m_RootOrder: 3
  m_LocalEulerAnglesHint: {x: 0, y: 0, z: 0}
--- !u!1 &1378932812142896
GameObject:
  m_ObjectHideFlags: 0
  m_CorrespondingSourceObject: {fileID: 0}
  m_PrefabInstance: {fileID: 0}
  m_PrefabAsset: {fileID: 0}
  serializedVersion: 6
  m_Component:
  - component: {fileID: 4647046701177782}
  - component: {fileID: 33978833004312134}
  - component: {fileID: 23760079221298854}
  m_Layer: 0
  m_Name: flagBlue
  m_TagString: Untagged
  m_Icon: {fileID: 0}
  m_NavMeshLayer: 0
  m_StaticEditorFlags: 0
  m_IsActive: 1
--- !u!4 &4647046701177782
Transform:
  m_ObjectHideFlags: 0
  m_CorrespondingSourceObject: {fileID: 0}
  m_PrefabInstance: {fileID: 0}
  m_PrefabAsset: {fileID: 0}
  m_GameObject: {fileID: 1378932812142896}
  m_LocalRotation: {x: -0, y: -0, z: -0, w: 1}
  m_LocalPosition: {x: 5.03, y: 25.9, z: 4.32}
  m_LocalScale: {x: 1, y: 1, z: 1}
  m_Children:
  - {fileID: 4449539321200654}
  m_Father: {fileID: 4392913228504378}
  m_RootOrder: 2
  m_LocalEulerAnglesHint: {x: 0, y: 0, z: 0}
--- !u!33 &33978833004312134
MeshFilter:
  m_ObjectHideFlags: 0
  m_CorrespondingSourceObject: {fileID: 0}
  m_PrefabInstance: {fileID: 0}
  m_PrefabAsset: {fileID: 0}
  m_GameObject: {fileID: 1378932812142896}
  m_Mesh: {fileID: 4300000, guid: 4a24150bda2bdf841ba93226f6713260, type: 3}
--- !u!23 &23760079221298854
MeshRenderer:
  m_ObjectHideFlags: 0
  m_CorrespondingSourceObject: {fileID: 0}
  m_PrefabInstance: {fileID: 0}
  m_PrefabAsset: {fileID: 0}
  m_GameObject: {fileID: 1378932812142896}
  m_Enabled: 1
  m_CastShadows: 1
  m_ReceiveShadows: 1
  m_DynamicOccludee: 1
  m_MotionVectors: 1
  m_LightProbeUsage: 1
  m_ReflectionProbeUsage: 1
  m_RenderingLayerMask: 4294967295
  m_RendererPriority: 0
  m_Materials:
  - {fileID: 2100000, guid: d6d6ac8b0effb5d438eb965d2b9a93e0, type: 2}
  - {fileID: 2100000, guid: 0bf7ef647d62e724d91a9dd3b1315248, type: 2}
  m_StaticBatchInfo:
    firstSubMesh: 0
    subMeshCount: 0
  m_StaticBatchRoot: {fileID: 0}
  m_ProbeAnchor: {fileID: 0}
  m_LightProbeVolumeOverride: {fileID: 0}
  m_ScaleInLightmap: 1
  m_PreserveUVs: 0
  m_IgnoreNormalsForChartDetection: 0
  m_ImportantGI: 0
  m_StitchLightmapSeams: 0
  m_SelectedEditorRenderState: 3
  m_MinimumChartSize: 4
  m_AutoUVMaxDistance: 0.5
  m_AutoUVMaxAngle: 89
  m_LightmapParameters: {fileID: 0}
  m_SortingLayerID: 0
  m_SortingLayer: 0
  m_SortingOrder: 0
--- !u!1 &1412733703892874
GameObject:
  m_ObjectHideFlags: 0
  m_CorrespondingSourceObject: {fileID: 0}
  m_PrefabInstance: {fileID: 0}
  m_PrefabAsset: {fileID: 0}
  serializedVersion: 6
  m_Component:
  - component: {fileID: 4591949755193684}
  m_Layer: 10
  m_Name: WorkerPos2
  m_TagString: Untagged
  m_Icon: {fileID: 0}
  m_NavMeshLayer: 0
  m_StaticEditorFlags: 0
  m_IsActive: 1
--- !u!4 &4591949755193684
Transform:
  m_ObjectHideFlags: 0
  m_CorrespondingSourceObject: {fileID: 0}
  m_PrefabInstance: {fileID: 0}
  m_PrefabAsset: {fileID: 0}
  m_GameObject: {fileID: 1412733703892874}
  m_LocalRotation: {x: -0, y: -0, z: -0, w: 1}
  m_LocalPosition: {x: 0, y: 0, z: -1.1}
  m_LocalScale: {x: 1, y: 1, z: 1}
  m_Children: []
  m_Father: {fileID: 4844927283568626}
  m_RootOrder: 1
  m_LocalEulerAnglesHint: {x: 0, y: 0, z: 0}
--- !u!1 &1659079875837304
GameObject:
  m_ObjectHideFlags: 0
  m_CorrespondingSourceObject: {fileID: 0}
  m_PrefabInstance: {fileID: 0}
  m_PrefabAsset: {fileID: 0}
  serializedVersion: 6
  m_Component:
  - component: {fileID: 4449539321200654}
  - component: {fileID: 33543051737236080}
  - component: {fileID: 23042227099438040}
  m_Layer: 0
  m_Name: flag
  m_TagString: Untagged
  m_Icon: {fileID: 0}
  m_NavMeshLayer: 0
  m_StaticEditorFlags: 0
  m_IsActive: 1
--- !u!4 &4449539321200654
Transform:
  m_ObjectHideFlags: 0
  m_CorrespondingSourceObject: {fileID: 0}
  m_PrefabInstance: {fileID: 0}
  m_PrefabAsset: {fileID: 0}
  m_GameObject: {fileID: 1659079875837304}
  m_LocalRotation: {x: 0, y: -0, z: -0, w: 1}
  m_LocalPosition: {x: -0, y: 6.494, z: -0.144}
  m_LocalScale: {x: 1, y: 1, z: 1}
  m_Children: []
  m_Father: {fileID: 4647046701177782}
  m_RootOrder: 0
  m_LocalEulerAnglesHint: {x: 0, y: 0, z: 0}
--- !u!33 &33543051737236080
MeshFilter:
  m_ObjectHideFlags: 0
  m_CorrespondingSourceObject: {fileID: 0}
  m_PrefabInstance: {fileID: 0}
  m_PrefabAsset: {fileID: 0}
  m_GameObject: {fileID: 1659079875837304}
  m_Mesh: {fileID: 4300002, guid: 4a24150bda2bdf841ba93226f6713260, type: 3}
--- !u!23 &23042227099438040
MeshRenderer:
  m_ObjectHideFlags: 0
  m_CorrespondingSourceObject: {fileID: 0}
  m_PrefabInstance: {fileID: 0}
  m_PrefabAsset: {fileID: 0}
  m_GameObject: {fileID: 1659079875837304}
  m_Enabled: 1
  m_CastShadows: 1
  m_ReceiveShadows: 1
  m_DynamicOccludee: 1
  m_MotionVectors: 1
  m_LightProbeUsage: 1
  m_ReflectionProbeUsage: 1
  m_RenderingLayerMask: 4294967295
  m_RendererPriority: 0
  m_Materials:
  - {fileID: 2100000, guid: 0bf7ef647d62e724d91a9dd3b1315248, type: 2}
  m_StaticBatchInfo:
    firstSubMesh: 0
    subMeshCount: 0
  m_StaticBatchRoot: {fileID: 0}
  m_ProbeAnchor: {fileID: 0}
  m_LightProbeVolumeOverride: {fileID: 0}
  m_ScaleInLightmap: 1
  m_PreserveUVs: 0
  m_IgnoreNormalsForChartDetection: 0
  m_ImportantGI: 0
  m_StitchLightmapSeams: 0
  m_SelectedEditorRenderState: 3
  m_MinimumChartSize: 4
  m_AutoUVMaxDistance: 0.5
  m_AutoUVMaxAngle: 89
  m_LightmapParameters: {fileID: 0}
  m_SortingLayerID: 0
  m_SortingLayer: 0
  m_SortingOrder: 0
--- !u!1 &1692087001911708
GameObject:
  m_ObjectHideFlags: 0
  m_CorrespondingSourceObject: {fileID: 0}
  m_PrefabInstance: {fileID: 0}
  m_PrefabAsset: {fileID: 0}
  serializedVersion: 6
  m_Component:
  - component: {fileID: 4280584445446210}
  m_Layer: 10
  m_Name: WorkerPos3
  m_TagString: Untagged
  m_Icon: {fileID: 0}
  m_NavMeshLayer: 0
  m_StaticEditorFlags: 0
  m_IsActive: 1
--- !u!4 &4280584445446210
Transform:
  m_ObjectHideFlags: 0
  m_CorrespondingSourceObject: {fileID: 0}
  m_PrefabInstance: {fileID: 0}
  m_PrefabAsset: {fileID: 0}
  m_GameObject: {fileID: 1692087001911708}
  m_LocalRotation: {x: -0, y: -0, z: -0, w: 1}
  m_LocalPosition: {x: 1.1, y: 0, z: 0}
  m_LocalScale: {x: 1, y: 1, z: 1}
  m_Children: []
  m_Father: {fileID: 4844927283568626}
  m_RootOrder: 2
  m_LocalEulerAnglesHint: {x: 0, y: 0, z: 0}
--- !u!1 &1701988181063320
GameObject:
  m_ObjectHideFlags: 0
  m_CorrespondingSourceObject: {fileID: 0}
  m_PrefabInstance: {fileID: 0}
  m_PrefabAsset: {fileID: 0}
  serializedVersion: 6
  m_Component:
  - component: {fileID: 4798393859675466}
  m_Layer: 0
  m_Name: BuildingStateObjs
  m_TagString: Untagged
  m_Icon: {fileID: 0}
  m_NavMeshLayer: 0
  m_StaticEditorFlags: 0
  m_IsActive: 1
--- !u!4 &4798393859675466
Transform:
  m_ObjectHideFlags: 0
  m_CorrespondingSourceObject: {fileID: 0}
  m_PrefabInstance: {fileID: 0}
  m_PrefabAsset: {fileID: 0}
  m_GameObject: {fileID: 1701988181063320}
  m_LocalRotation: {x: -0, y: -0, z: -0, w: 1}
  m_LocalPosition: {x: 0, y: 0, z: 0}
  m_LocalScale: {x: 1, y: 1, z: 1}
  m_Children:
  - {fileID: 7240960696969896428}
  m_Father: {fileID: 4108123282928944}
  m_RootOrder: 0
  m_LocalEulerAnglesHint: {x: 0, y: 0, z: 0}
--- !u!1 &1719516604023832
GameObject:
  m_ObjectHideFlags: 0
  m_CorrespondingSourceObject: {fileID: 0}
  m_PrefabInstance: {fileID: 0}
  m_PrefabAsset: {fileID: 0}
  serializedVersion: 6
  m_Component:
  - component: {fileID: 4844927283568626}
  m_Layer: 10
  m_Name: WorkerPositions
  m_TagString: Untagged
  m_Icon: {fileID: 0}
  m_NavMeshLayer: 0
  m_StaticEditorFlags: 0
  m_IsActive: 1
--- !u!4 &4844927283568626
Transform:
  m_ObjectHideFlags: 0
  m_CorrespondingSourceObject: {fileID: 0}
  m_PrefabInstance: {fileID: 0}
  m_PrefabAsset: {fileID: 0}
  m_GameObject: {fileID: 1719516604023832}
  m_LocalRotation: {x: 0, y: 0, z: 0, w: 1}
  m_LocalPosition: {x: 0, y: 0, z: 0}
  m_LocalScale: {x: 1, y: 1, z: 1}
  m_Children:
  - {fileID: 4636008539795100}
  - {fileID: 4591949755193684}
  - {fileID: 4280584445446210}
  - {fileID: 4340333989532064}
  m_Father: {fileID: 4108123282928944}
  m_RootOrder: 5
  m_LocalEulerAnglesHint: {x: 0, y: 0, z: 0}
--- !u!1 &1797725198183444
GameObject:
  m_ObjectHideFlags: 0
  m_CorrespondingSourceObject: {fileID: 0}
  m_PrefabInstance: {fileID: 0}
  m_PrefabAsset: {fileID: 0}
  serializedVersion: 6
  m_Component:
  - component: {fileID: 4636008539795100}
  m_Layer: 10
  m_Name: WorkerPos1
  m_TagString: Untagged
  m_Icon: {fileID: 0}
  m_NavMeshLayer: 0
  m_StaticEditorFlags: 0
  m_IsActive: 1
--- !u!4 &4636008539795100
Transform:
  m_ObjectHideFlags: 0
  m_CorrespondingSourceObject: {fileID: 0}
  m_PrefabInstance: {fileID: 0}
  m_PrefabAsset: {fileID: 0}
  m_GameObject: {fileID: 1797725198183444}
  m_LocalRotation: {x: -0, y: -0, z: -0, w: 1}
  m_LocalPosition: {x: 0, y: 0, z: 1.1}
  m_LocalScale: {x: 1, y: 1, z: 1}
  m_Children: []
  m_Father: {fileID: 4844927283568626}
  m_RootOrder: 0
  m_LocalEulerAnglesHint: {x: 0, y: 0, z: 0}
--- !u!1 &1861225441011498
GameObject:
  m_ObjectHideFlags: 0
  m_CorrespondingSourceObject: {fileID: 0}
  m_PrefabInstance: {fileID: 0}
  m_PrefabAsset: {fileID: 0}
  serializedVersion: 6
  m_Component:
  - component: {fileID: 4565228955685726}
  - component: {fileID: 33170034907360092}
  - component: {fileID: 23787943672546122}
  m_Layer: 0
  m_Name: towerSquareMidWindows
  m_TagString: Untagged
  m_Icon: {fileID: 0}
  m_NavMeshLayer: 0
  m_StaticEditorFlags: 0
  m_IsActive: 1
--- !u!4 &4565228955685726
Transform:
  m_ObjectHideFlags: 0
  m_CorrespondingSourceObject: {fileID: 0}
  m_PrefabInstance: {fileID: 0}
  m_PrefabAsset: {fileID: 0}
  m_GameObject: {fileID: 1861225441011498}
  m_LocalRotation: {x: -0, y: -0, z: -0, w: 1}
  m_LocalPosition: {x: 0, y: 9, z: 0}
  m_LocalScale: {x: 1, y: 1, z: 1}
  m_Children: []
  m_Father: {fileID: 4392913228504378}
  m_RootOrder: 0
  m_LocalEulerAnglesHint: {x: 0, y: 0, z: 0}
--- !u!33 &33170034907360092
MeshFilter:
  m_ObjectHideFlags: 0
  m_CorrespondingSourceObject: {fileID: 0}
  m_PrefabInstance: {fileID: 0}
  m_PrefabAsset: {fileID: 0}
  m_GameObject: {fileID: 1861225441011498}
  m_Mesh: {fileID: 4300000, guid: 8b983394e695f1f4aaed6fefc00ad7c4, type: 3}
--- !u!23 &23787943672546122
MeshRenderer:
  m_ObjectHideFlags: 0
  m_CorrespondingSourceObject: {fileID: 0}
  m_PrefabInstance: {fileID: 0}
  m_PrefabAsset: {fileID: 0}
  m_GameObject: {fileID: 1861225441011498}
  m_Enabled: 1
  m_CastShadows: 1
  m_ReceiveShadows: 1
  m_DynamicOccludee: 1
  m_MotionVectors: 1
  m_LightProbeUsage: 1
  m_ReflectionProbeUsage: 1
  m_RenderingLayerMask: 4294967295
  m_RendererPriority: 0
  m_Materials:
  - {fileID: 2100000, guid: ab7f7360b5b715f4c883edad68700d29, type: 2}
  - {fileID: 2100000, guid: 8f512dd9f90fc3940a6625e492f60fe3, type: 2}
  - {fileID: 2100000, guid: 62709c40ce462894a86a8ce587cb0a62, type: 2}
  m_StaticBatchInfo:
    firstSubMesh: 0
    subMeshCount: 0
  m_StaticBatchRoot: {fileID: 0}
  m_ProbeAnchor: {fileID: 0}
  m_LightProbeVolumeOverride: {fileID: 0}
  m_ScaleInLightmap: 1
  m_PreserveUVs: 0
  m_IgnoreNormalsForChartDetection: 0
  m_ImportantGI: 0
  m_StitchLightmapSeams: 0
  m_SelectedEditorRenderState: 3
  m_MinimumChartSize: 4
  m_AutoUVMaxDistance: 0.5
  m_AutoUVMaxAngle: 89
  m_LightmapParameters: {fileID: 0}
  m_SortingLayerID: 0
  m_SortingLayer: 0
  m_SortingOrder: 0
--- !u!1 &1949070759451780
GameObject:
  m_ObjectHideFlags: 0
  m_CorrespondingSourceObject: {fileID: 0}
  m_PrefabInstance: {fileID: 0}
  m_PrefabAsset: {fileID: 0}
  serializedVersion: 6
  m_Component:
  - component: {fileID: 4340333989532064}
  m_Layer: 10
  m_Name: WorkerPos4
  m_TagString: Untagged
  m_Icon: {fileID: 0}
  m_NavMeshLayer: 0
  m_StaticEditorFlags: 0
  m_IsActive: 1
--- !u!4 &4340333989532064
Transform:
  m_ObjectHideFlags: 0
  m_CorrespondingSourceObject: {fileID: 0}
  m_PrefabInstance: {fileID: 0}
  m_PrefabAsset: {fileID: 0}
  m_GameObject: {fileID: 1949070759451780}
  m_LocalRotation: {x: -0, y: -0, z: -0, w: 1}
  m_LocalPosition: {x: -1.1, y: 0, z: 0}
  m_LocalScale: {x: 1, y: 1, z: 1}
  m_Children: []
  m_Father: {fileID: 4844927283568626}
  m_RootOrder: 3
  m_LocalEulerAnglesHint: {x: 0, y: 0, z: 0}
--- !u!1 &1973574846586264
GameObject:
  m_ObjectHideFlags: 0
  m_CorrespondingSourceObject: {fileID: 0}
  m_PrefabInstance: {fileID: 0}
  m_PrefabAsset: {fileID: 0}
  serializedVersion: 6
  m_Component:
  - component: {fileID: 4430231257855790}
  - component: {fileID: 33956540472822528}
  - component: {fileID: 23048331675743820}
  m_Layer: 0
  m_Name: flagBannerLong
  m_TagString: Untagged
  m_Icon: {fileID: 0}
  m_NavMeshLayer: 0
  m_StaticEditorFlags: 0
  m_IsActive: 1
--- !u!4 &4430231257855790
Transform:
  m_ObjectHideFlags: 0
  m_CorrespondingSourceObject: {fileID: 0}
  m_PrefabInstance: {fileID: 0}
  m_PrefabAsset: {fileID: 0}
  m_GameObject: {fileID: 1973574846586264}
  m_LocalRotation: {x: -0, y: -0, z: -0, w: 1}
  m_LocalPosition: {x: 0.65, y: 17.7, z: 4.38}
  m_LocalScale: {x: 1, y: 1, z: 1}
  m_Children: []
  m_Father: {fileID: 4392913228504378}
  m_RootOrder: 3
  m_LocalEulerAnglesHint: {x: 0, y: 0, z: 0}
--- !u!33 &33956540472822528
MeshFilter:
  m_ObjectHideFlags: 0
  m_CorrespondingSourceObject: {fileID: 0}
  m_PrefabInstance: {fileID: 0}
  m_PrefabAsset: {fileID: 0}
  m_GameObject: {fileID: 1973574846586264}
  m_Mesh: {fileID: 4300000, guid: f8586b11bd332894481667448785f251, type: 3}
--- !u!23 &23048331675743820
MeshRenderer:
  m_ObjectHideFlags: 0
  m_CorrespondingSourceObject: {fileID: 0}
  m_PrefabInstance: {fileID: 0}
  m_PrefabAsset: {fileID: 0}
  m_GameObject: {fileID: 1973574846586264}
  m_Enabled: 1
  m_CastShadows: 1
  m_ReceiveShadows: 1
  m_DynamicOccludee: 1
  m_MotionVectors: 1
  m_LightProbeUsage: 1
  m_ReflectionProbeUsage: 1
  m_RenderingLayerMask: 4294967295
  m_RendererPriority: 0
  m_Materials:
  - {fileID: 2100000, guid: 987041c2b08857146829bf8b6762868c, type: 2}
  - {fileID: 2100000, guid: 0bf7ef647d62e724d91a9dd3b1315248, type: 2}
  m_StaticBatchInfo:
    firstSubMesh: 0
    subMeshCount: 0
  m_StaticBatchRoot: {fileID: 0}
  m_ProbeAnchor: {fileID: 0}
  m_LightProbeVolumeOverride: {fileID: 0}
  m_ScaleInLightmap: 1
  m_PreserveUVs: 0
  m_IgnoreNormalsForChartDetection: 0
  m_ImportantGI: 0
  m_StitchLightmapSeams: 0
  m_SelectedEditorRenderState: 3
  m_MinimumChartSize: 4
  m_AutoUVMaxDistance: 0.5
  m_AutoUVMaxAngle: 89
  m_LightmapParameters: {fileID: 0}
  m_SortingLayerID: 0
  m_SortingLayer: 0
  m_SortingOrder: 0
--- !u!1 &1988406876300062
GameObject:
  m_ObjectHideFlags: 0
  m_CorrespondingSourceObject: {fileID: 0}
  m_PrefabInstance: {fileID: 0}
  m_PrefabAsset: {fileID: 0}
  serializedVersion: 6
  m_Component:
  - component: {fileID: 4062011883394204}
  m_Layer: 10
  m_Name: AttackSource
  m_TagString: Untagged
  m_Icon: {fileID: 0}
  m_NavMeshLayer: 0
  m_StaticEditorFlags: 0
  m_IsActive: 1
--- !u!4 &4062011883394204
Transform:
  m_ObjectHideFlags: 0
  m_CorrespondingSourceObject: {fileID: 0}
  m_PrefabInstance: {fileID: 0}
  m_PrefabAsset: {fileID: 0}
  m_GameObject: {fileID: 1988406876300062}
  m_LocalRotation: {x: -0, y: -0, z: -0, w: 1}
  m_LocalPosition: {x: 0, y: 3.4012442, z: 0}
  m_LocalScale: {x: 2, y: 2, z: 2}
  m_Children: []
  m_Father: {fileID: 4108123282928944}
  m_RootOrder: 6
  m_LocalEulerAnglesHint: {x: 0, y: 0, z: 0}
--- !u!1 &1567958135663900258
GameObject:
  m_ObjectHideFlags: 0
  m_CorrespondingSourceObject: {fileID: 0}
  m_PrefabInstance: {fileID: 0}
  m_PrefabAsset: {fileID: 0}
  serializedVersion: 6
  m_Component:
  - component: {fileID: 1567958135663602242}
  - component: {fileID: 1567958135662832226}
  - component: {fileID: 1567958135661701282}
  m_Layer: 0
  m_Name: towerSquarePoles
  m_TagString: Untagged
  m_Icon: {fileID: 0}
  m_NavMeshLayer: 0
  m_StaticEditorFlags: 0
  m_IsActive: 1
--- !u!4 &1567958135663602242
Transform:
  m_ObjectHideFlags: 0
  m_CorrespondingSourceObject: {fileID: 0}
  m_PrefabInstance: {fileID: 0}
  m_PrefabAsset: {fileID: 0}
  m_GameObject: {fileID: 1567958135663900258}
  m_LocalRotation: {x: -0, y: -0, z: -0, w: 1}
  m_LocalPosition: {x: -0.59, y: -0.22, z: -0.33}
  m_LocalScale: {x: 0.22, y: 0.4, z: 0.22}
  m_Children: []
  m_Father: {fileID: 4103228497109666}
  m_RootOrder: 0
  m_LocalEulerAnglesHint: {x: 0, y: 0, z: 0}
--- !u!33 &1567958135662832226
MeshFilter:
  m_ObjectHideFlags: 0
  m_CorrespondingSourceObject: {fileID: 0}
  m_PrefabInstance: {fileID: 0}
  m_PrefabAsset: {fileID: 0}
  m_GameObject: {fileID: 1567958135663900258}
  m_Mesh: {fileID: 4300000, guid: c61159322b30c9a43a32abe2c40906b7, type: 3}
--- !u!23 &1567958135661701282
MeshRenderer:
  m_ObjectHideFlags: 0
  m_CorrespondingSourceObject: {fileID: 0}
  m_PrefabInstance: {fileID: 0}
  m_PrefabAsset: {fileID: 0}
  m_GameObject: {fileID: 1567958135663900258}
  m_Enabled: 1
  m_CastShadows: 1
  m_ReceiveShadows: 1
  m_DynamicOccludee: 1
  m_MotionVectors: 1
  m_LightProbeUsage: 1
  m_ReflectionProbeUsage: 1
  m_RenderingLayerMask: 1
  m_RendererPriority: 0
  m_Materials:
  - {fileID: 2100000, guid: ab7f7360b5b715f4c883edad68700d29, type: 2}
  - {fileID: 2100000, guid: 8f512dd9f90fc3940a6625e492f60fe3, type: 2}
  m_StaticBatchInfo:
    firstSubMesh: 0
    subMeshCount: 0
  m_StaticBatchRoot: {fileID: 0}
  m_ProbeAnchor: {fileID: 0}
  m_LightProbeVolumeOverride: {fileID: 0}
  m_ScaleInLightmap: 1
  m_PreserveUVs: 0
  m_IgnoreNormalsForChartDetection: 0
  m_ImportantGI: 0
  m_StitchLightmapSeams: 0
  m_SelectedEditorRenderState: 3
  m_MinimumChartSize: 4
  m_AutoUVMaxDistance: 0.5
  m_AutoUVMaxAngle: 89
  m_LightmapParameters: {fileID: 0}
  m_SortingLayerID: 0
  m_SortingLayer: 0
  m_SortingOrder: 0
--- !u!1001 &7237934048794335100
PrefabInstance:
  m_ObjectHideFlags: 0
  serializedVersion: 2
  m_Modification:
    m_TransformParent: {fileID: 4798393859675466}
    m_Modifications:
    - target: {fileID: 1372040286346358, guid: 53ebac442b16db64f9177d0c749cbb06, type: 3}
      propertyPath: m_Name
      value: Fire
      objectReference: {fileID: 0}
    - target: {fileID: 1372040286346358, guid: 53ebac442b16db64f9177d0c749cbb06, type: 3}
      propertyPath: m_IsActive
      value: 0
      objectReference: {fileID: 0}
    - target: {fileID: 4294455949784720, guid: 53ebac442b16db64f9177d0c749cbb06, type: 3}
      propertyPath: m_LocalPosition.x
      value: -0.13
      objectReference: {fileID: 0}
    - target: {fileID: 4294455949784720, guid: 53ebac442b16db64f9177d0c749cbb06, type: 3}
      propertyPath: m_LocalPosition.y
      value: 3.95
      objectReference: {fileID: 0}
    - target: {fileID: 4294455949784720, guid: 53ebac442b16db64f9177d0c749cbb06, type: 3}
      propertyPath: m_LocalPosition.z
      value: 0
      objectReference: {fileID: 0}
    - target: {fileID: 4294455949784720, guid: 53ebac442b16db64f9177d0c749cbb06, type: 3}
      propertyPath: m_LocalRotation.x
      value: -0.7071068
      objectReference: {fileID: 0}
    - target: {fileID: 4294455949784720, guid: 53ebac442b16db64f9177d0c749cbb06, type: 3}
      propertyPath: m_LocalRotation.y
      value: 0
      objectReference: {fileID: 0}
    - target: {fileID: 4294455949784720, guid: 53ebac442b16db64f9177d0c749cbb06, type: 3}
      propertyPath: m_LocalRotation.z
      value: 0
      objectReference: {fileID: 0}
    - target: {fileID: 4294455949784720, guid: 53ebac442b16db64f9177d0c749cbb06, type: 3}
      propertyPath: m_LocalRotation.w
      value: 0.7071068
      objectReference: {fileID: 0}
    - target: {fileID: 4294455949784720, guid: 53ebac442b16db64f9177d0c749cbb06, type: 3}
      propertyPath: m_RootOrder
      value: 0
      objectReference: {fileID: 0}
    - target: {fileID: 4294455949784720, guid: 53ebac442b16db64f9177d0c749cbb06, type: 3}
      propertyPath: m_LocalEulerAnglesHint.x
      value: -90
      objectReference: {fileID: 0}
    - target: {fileID: 4294455949784720, guid: 53ebac442b16db64f9177d0c749cbb06, type: 3}
      propertyPath: m_LocalEulerAnglesHint.y
      value: 0
      objectReference: {fileID: 0}
    - target: {fileID: 4294455949784720, guid: 53ebac442b16db64f9177d0c749cbb06, type: 3}
      propertyPath: m_LocalEulerAnglesHint.z
      value: 0
      objectReference: {fileID: 0}
    m_RemovedComponents: []
  m_SourcePrefab: {fileID: 100100000, guid: 53ebac442b16db64f9177d0c749cbb06, type: 3}
--- !u!1 &7239133388311218954 stripped
GameObject:
  m_CorrespondingSourceObject: {fileID: 1372040286346358, guid: 53ebac442b16db64f9177d0c749cbb06,
    type: 3}
  m_PrefabInstance: {fileID: 7237934048794335100}
  m_PrefabAsset: {fileID: 0}
--- !u!4 &7240960696969896428 stripped
Transform:
  m_CorrespondingSourceObject: {fileID: 4294455949784720, guid: 53ebac442b16db64f9177d0c749cbb06,
    type: 3}
  m_PrefabInstance: {fileID: 7237934048794335100}
  m_PrefabAsset: {fileID: 0}
